<?xml version="1.0" encoding="utf-8"?>
<COLLADA xmlns="http://www.collada.org/2005/11/COLLADASchema" version="1.4.1">
  <asset><contributor><author></author><authoring_tool>FBX COLLADA exporter</authoring_tool><comments></comments></contributor><created>2020-02-01T20:17:31Z</created><keywords></keywords><modified>2020-02-01T20:17:31Z</modified><revision></revision><subject></subject><title></title><unit meter="1.000000" name="centimeter"></unit><up_axis>Y_UP</up_axis></asset>
  <library_materials>
    <material id="Metal_Basic" name="Metal_Basic">
      <instance_effect url="#Metal_Basic-fx"/>
    </material>
    <material id="Metal_Red" name="Metal_Red">
      <instance_effect url="#Metal_Red-fx"/>
    </material>
    <material id="Metal_Dark" name="Metal_Dark">
      <instance_effect url="#Metal_Dark-fx"/>
    </material>
  </library_materials>
  <library_effects>
    <effect id="Metal_Basic-fx" name="Metal_Basic">
      <profile_COMMON>
        <technique sid="standard">
          <lambert>
            <emission>
              <color sid="emission">0.000000  0.000000 0.000000 1.000000</color>
            </emission>
            <ambient>
              <color sid="ambient">0.000000  0.000000 0.000000 1.000000</color>
            </ambient>
            <diffuse>
              <color sid="diffuse">0.214243  0.289642 0.309600 1.000000</color>
            </diffuse>
            <transparent opaque="RGB_ZERO">
              <color sid="transparent">0.000000  0.000000 0.000000 1.000000</color>
            </transparent>
            <transparency>
              <float sid="transparency">1.000000</float>
            </transparency>
          </lambert>
        </technique>
      </profile_COMMON>
    </effect>
    <effect id="Metal_Red-fx" name="Metal_Red">
      <profile_COMMON>
        <technique sid="standard">
          <lambert>
            <emission>
              <color sid="emission">0.000000  0.000000 0.000000 1.000000</color>
            </emission>
            <ambient>
              <color sid="ambient">0.000000  0.000000 0.000000 1.000000</color>
            </ambient>
            <diffuse>
              <color sid="diffuse">0.376720  0.027040 0.014720 1.000000</color>
            </diffuse>
            <transparent opaque="RGB_ZERO">
              <color sid="transparent">0.000000  0.000000 0.000000 1.000000</color>
            </transparent>
            <transparency>
              <float sid="transparency">1.000000</float>
            </transparency>
          </lambert>
        </technique>
      </profile_COMMON>
    </effect>
    <effect id="Metal_Dark-fx" name="Metal_Dark">
      <profile_COMMON>
        <technique sid="standard">
          <lambert>
            <emission>
              <color sid="emission">0.000000  0.000000 0.000000 1.000000</color>
            </emission>
            <ambient>
              <color sid="ambient">0.000000  0.000000 0.000000 1.000000</color>
            </ambient>
            <diffuse>
              <color sid="diffuse">0.156560  0.160480 0.177440 1.000000</color>
            </diffuse>
            <transparent opaque="RGB_ZERO">
              <color sid="transparent">0.000000  0.000000 0.000000 1.000000</color>
            </transparent>
            <transparency>
              <float sid="transparency">1.000000</float>
            </transparency>
          </lambert>
        </technique>
      </profile_COMMON>
    </effect>
  </library_effects>
  <library_geometries>
    <geometry id="Engine-lib" name="EngineMesh">
      <mesh>
        <source id="Engine-POSITION">
          <float_array id="Engine-POSITION-array" count="993">
-105.328964 52.916470 -0.723263
105.328972 52.916470 -0.723263
-83.289505 94.187492 29.261898
-98.873749 89.481094 25.842491
-105.328964 78.118805 17.587326
-83.289505 68.680595 47.793751
-98.873749 66.882904 42.261040
-105.328964 62.542912 28.903885
-83.289505 37.152332 47.793736
-98.873749 38.950020 42.261024
-105.328964 43.290028 28.903877
-83.289505 11.645436 29.261890
-98.873749 17.178150 26.442841
-105.328964 30.535301 19.637032
-105.328964 30.535311 -21.083557
-98.873749 17.178154 -27.889362
-83.289505 11.645443 -30.708422
-83.289505 37.152340 -49.240261
-98.873749 38.950027 -43.707550
-105.328964 43.290028 -30.350395
-83.289505 68.680595 -49.240261
-98.873749 66.882904 -43.707550
-105.328964 62.542912 -30.350395
-83.289505 94.187492 -30.708416
-98.873749 89.481094 -27.289017
-105.328964 78.118805 -19.033844
-83.289505 103.930244 -0.723263
-98.873749 98.112808 -0.723263
-105.328964 84.068283 -0.723263
83.289513 94.187492 29.261896
98.873764 89.481094 25.842495
105.328972 78.118805 17.587326
83.289513 68.680595 47.793751
98.873756 66.882904 42.261040
105.328964 62.542912 28.903881
83.289520 37.152332 47.793736
98.873764 38.950020 42.261024
105.328972 43.290028 28.903877
105.328972 30.535301 19.637028
98.873764 17.178150 26.442837
83.289520 11.645436 29.261890
83.289520 11.645443 -30.708424
98.873756 17.178154 -27.889366
105.328972 30.535311 -21.083553
83.289520 37.152340 -49.240261
98.873764 38.950027 -43.707550
105.328972 43.290028 -30.350391
83.289520 68.680595 -49.240261
98.873764 66.882904 -43.707550
105.328972 62.542912 -30.350391
83.289520 94.187492 -30.708416
98.873764 89.481094 -27.289017
105.328972 78.118805 -19.033848
83.289520 103.930244 -0.723263
98.873764 98.112808 -0.723263
105.328972 84.068283 -0.723263
-113.086899 81.129173 -0.172188
113.086899 81.129173 -0.172188
-113.086906 43.769897 -15.133553
113.086899 43.769897 -15.133553
-113.086899 59.972389 27.052208
113.086906 59.972389 27.052204
-106.227203 88.700348 -10.593029
-113.086899 84.915131 -5.383133
-106.227203 93.379601 -4.152596
-113.086899 87.254997 -2.162590
-106.227203 93.379601 3.808224
-113.086899 87.254997 1.818214
-106.227203 88.700348 10.248653
-113.086899 84.915131 5.038757
-106.227203 81.129173 12.708683
-113.086899 81.129173 6.268890
-106.227203 73.557983 10.248653
-113.086899 77.343201 5.038757
-106.227203 68.878731 3.808216
-113.086899 75.003342 1.818214
-106.227203 68.878731 -4.152596
-113.086899 75.003342 -2.162590
-106.227203 73.557983 -10.593029
-113.086899 77.343201 -5.383133
-106.227203 81.129173 -13.053055
-113.086906 81.129173 -6.613266
106.227203 88.700348 -10.593029
113.086906 84.915131 -5.383133
106.227196 93.379601 -4.152592
113.086899 87.254997 -2.162590
106.227203 93.379601 3.808220
113.086906 87.254997 1.818214
106.227203 88.700348 10.248653
113.086899 84.915131 5.038757
106.227203 81.129173 12.708683
113.086899 81.129173 6.268894
106.227196 73.557983 10.248653
113.086899 77.343201 5.038757
106.227203 68.878731 3.808220
113.086899 75.003342 1.818214
106.227203 68.878731 -4.152599
113.086899 75.003342 -2.162590
106.227203 73.557983 -10.593029
113.086906 77.343201 -5.383133
106.227196 81.129173 -13.053059
113.086899 81.129173 -6.613266
-106.227203 59.517876 -36.808784
-113.086906 55.278355 -30.973576
-106.227203 69.250671 -23.412750
-113.086899 62.390968 -21.183903
-106.227196 69.250664 -6.854347
-113.086899 62.390961 -9.083199
-106.227203 59.517876 6.541683
-113.086899 55.278351 0.706474
-106.227203 43.769894 11.658512
-113.086899 43.769894 4.445793
-106.227203 28.021921 6.541676
-113.086899 32.261444 0.706474
-106.227203 18.289135 -6.854351
-113.086899 25.148830 -9.083202
-106.227203 18.289137 -23.412754
-113.086899 25.148834 -21.183903
-106.227203 28.021921 -36.808784
-113.086906 32.261444 -30.973576
-106.227211 43.769897 -41.925613
-113.086899 43.769897 -34.712898
106.227203 59.517876 -36.808781
113.086899 55.278355 -30.973579
106.227203 69.250671 -23.412754
113.086906 62.390968 -21.183899
106.227203 69.250664 -6.854343
113.086899 62.390961 -9.083199
106.227203 59.517876 6.541683
113.086906 55.278351 0.706474
106.227196 43.769894 11.658508
113.086906 43.769894 4.445797
106.227203 28.021921 6.541679
113.086899 32.261444 0.706474
106.227203 18.289135 -6.854351
113.086899 25.148830 -9.083199
106.227203 18.289137 -23.412754
113.086906 25.148834 -21.183907
106.227203 28.021921 -36.808781
113.086899 32.261444 -30.973579
106.227203 43.769897 -41.925610
113.086899 43.769897 -34.712898
-106.227196 67.543571 16.631359
-113.086906 63.758366 21.841255
-106.227203 72.222824 23.071796
-113.086899 66.098228 25.061798
-106.227203 72.222816 31.032612
-113.086899 66.098228 29.042610
-106.227203 67.543571 37.473049
-113.086899 63.758358 32.263145
-106.227203 59.972389 39.933071
-113.086906 59.972389 33.493286
-106.227203 52.401203 37.473049
-113.086906 56.186417 32.263145
-106.227203 47.721954 31.032612
-113.086906 53.846561 29.042603
-106.227203 47.721954 23.071796
-113.086899 53.846561 25.061798
-106.227196 52.401203 16.631359
-113.086906 56.186417 21.841255
-106.227203 59.972389 14.171337
-113.086899 59.972389 20.611122
106.227203 67.543571 16.631363
113.086899 63.758366 21.841255
106.227203 72.222824 23.071796
113.086906 66.098228 25.061798
106.227203 72.222816 31.032612
113.086906 66.098228 29.042606
106.227203 67.543571 37.473045
113.086899 63.758358 32.263149
106.227203 59.972389 39.933067
113.086906 59.972389 33.493286
106.227203 52.401203 37.473045
113.086899 56.186417 32.263145
106.227203 47.721954 31.032608
113.086906 53.846561 29.042603
106.227203 47.721954 23.071796
113.086906 53.846561 25.061798
106.227203 52.401203 16.631363
113.086899 56.186417 21.841255
106.227203 59.972389 14.171333
113.086906 59.972389 20.611122
74.783859 -0.000002 60.315643
74.783852 -2.491251 54.888180
80.798264 -0.000002 54.888180
83.289513 6.014405 54.888180
80.798264 6.014405 60.315643
74.783859 6.014405 62.563766
74.783859 -0.000002 -60.315643
74.783859 6.014405 -62.563766
80.798264 6.014405 -60.315643
83.289513 6.014405 -54.888184
80.798264 -0.000002 -54.888184
74.783859 -2.491251 -54.888184
74.783859 80.082565 66.838440
74.783859 74.068161 69.329697
80.798264 74.068161 66.838440
83.289505 74.068161 60.824039
80.798264 80.082565 60.824039
74.783859 82.573822 60.824039
74.783859 80.082565 -66.838448
74.783859 82.573822 -60.824036
80.798264 80.082565 -60.824036
83.289513 74.068161 -60.824036
80.798264 74.068161 -66.838448
74.783859 74.068161 -69.329697
-80.798264 74.068161 66.838448
-74.783859 74.068161 69.329697
-74.783859 80.082565 66.838448
-74.783859 82.573822 60.824036
-80.798264 80.082565 60.824036
-83.289513 74.068161 60.824036
-80.798264 74.068161 -66.838440
-83.289513 74.068161 -60.824039
-80.798264 80.082565 -60.824039
-74.783852 82.573822 -60.824039
-74.783852 80.082565 -66.838440
-74.783852 74.068161 -69.329697
-74.783859 -0.000002 60.315643
-74.783859 6.014405 62.563766
-80.798264 6.014405 60.315643
-83.289513 6.014405 54.888184
-80.798264 -0.000002 54.888184
-74.783859 -2.491251 54.888184
-74.783852 -0.000002 -60.315643
-74.783852 -2.491251 -54.888187
-80.798264 -0.000002 -54.888187
-83.289513 6.014405 -54.888187
-80.798264 6.014405 -60.315643
-74.783852 6.014405 -62.563766
79.692886 1.105378 59.318138
79.692886 1.105378 -59.318138
79.692886 78.977188 65.733070
79.692886 78.977188 -65.733070
-79.692886 78.977188 65.733070
-79.692886 78.977188 -65.733070
-79.692886 1.105378 59.318138
-79.692886 1.105378 -59.318138
50.462860 101.831772 49.448349
58.942757 96.345032 37.071877
54.703239 102.496033 43.649895
64.183632 95.524048 44.238445
57.323936 102.085495 47.233540
64.183640 94.509247 53.096806
57.323936 101.578049 51.663162
58.942760 93.688263 60.263367
54.703236 101.167511 55.246811
50.462860 93.374672 63.000748
50.462856 101.010696 56.615627
41.982956 93.688263 60.263367
46.222488 101.167511 55.246803
36.742088 94.509247 53.096802
43.601784 101.578049 51.663162
36.742088 95.524048 44.238441
43.601784 102.085495 47.233536
41.982956 96.345032 37.071877
46.222488 102.496033 43.649895
50.462860 96.658623 34.334496
50.462860 102.652847 42.281067
58.942757 32.390793 29.745403
64.183640 31.569805 36.911968
64.183632 30.555006 45.770332
58.942760 29.734020 52.936890
50.462856 29.420433 55.674274
41.982960 29.734020 52.936890
36.742088 30.555006 45.770329
36.742088 31.569805 36.911972
41.982956 32.390793 29.745403
50.462856 32.704384 27.008022
2.449160 101.831772 49.448349
10.929060 96.345032 37.071877
6.689539 102.496033 43.649895
16.169933 95.524048 44.238445
9.310236 102.085495 47.233540
16.169930 94.509247 53.096806
9.310236 101.578049 51.663162
10.929062 93.688263 60.263371
6.689533 101.167511 55.246807
2.449158 93.374672 63.000748
2.449158 101.010696 56.615627
-6.030743 93.688263 60.263363
-1.791216 101.167511 55.246803
-11.271612 94.509247 53.096798
-4.411913 101.578049 51.663162
-11.271611 95.524048 44.238445
-4.411913 102.085495 47.233540
-6.030743 96.345032 37.071877
-1.791216 102.496033 43.649895
2.449158 96.658623 34.334496
2.449158 102.652847 42.281067
10.929060 32.390793 29.745403
16.169933 31.569805 36.911972
16.169930 30.555006 45.770332
10.929062 29.734020 52.936890
2.449158 29.420433 55.674274
-6.030743 29.734020 52.936890
-11.271612 30.555006 45.770329
-11.271611 31.569805 36.911968
-6.030744 32.390793 29.745403
2.449158 32.704384 27.008022
-45.173904 101.831772 49.448353
-36.694000 96.345032 37.071877
-40.933525 102.496033 43.649895
-31.453127 95.524048 44.238445
-38.312828 102.085495 47.233540
-31.453133 94.509247 53.096806
-38.312824 101.578049 51.663158
-36.694000 93.688263 60.263367
-40.933529 101.167511 55.246807
-45.173904 93.374672 63.000751
-45.173904 101.010696 56.615627
-53.653805 93.688263 60.263367
-49.414276 101.167511 55.246799
-58.894676 94.509247 53.096798
-52.034973 101.578049 51.663162
-58.894676 95.524048 44.238445
-52.034973 102.085495 47.233536
-53.653805 96.345032 37.071877
-49.414276 102.496033 43.649891
-45.173904 96.658623 34.334496
-45.173904 102.652847 42.281071
-36.694000 32.390793 29.745403
-31.453127 31.569805 36.911968
-31.453133 30.555006 45.770329
-36.694000 29.734020 52.936890
-45.173904 29.420433 55.674274
-53.653805 29.734020 52.936890
-58.894676 30.555006 45.770329
-58.894672 31.569805 36.911968
-53.653809 32.390793 29.745403
-45.173904 32.704384 27.008022
</float_array>
          <technique_common>
            <accessor source="#Engine-POSITION-array" count="331" stride="3">
              <param name="X" type="float"/>
              <param name="Y" type="float"/>
              <param name="Z" type="float"/>
            </accessor>
          </technique_common>
        </source>
        <source id="Engine-Normal0">
          <float_array id="Engine-Normal0-array" count="3960">
-0.025492 -0.587594 -0.808754
-0.334561 -0.553914 -0.762397
-0.349717 -0.286995 -0.891814
-0.028098 -0.308693 -0.950747
-0.915783 -0.386047 -0.110947
-0.952992 -0.291207 -0.083690
-0.960443 -0.081726 -0.266215
-0.908599 -0.122575 -0.399279
0.960443 -0.081726 0.266214
0.908599 -0.122575 0.399278
0.915783 -0.386047 0.110947
0.952992 -0.291207 0.083690
0.349717 -0.286995 0.891814
0.028098 -0.308694 0.950746
0.025492 -0.587594 0.808754
0.334561 -0.553913 0.762397
-0.028323 0.808693 0.587549
-0.028323 0.308893 0.950675
0.028323 0.308893 0.950675
0.028323 0.808693 0.587549
-0.028323 0.308893 0.950675
-0.028098 -0.308694 0.950746
0.028098 -0.308694 0.950746
0.028323 0.308893 0.950675
-0.028098 -0.308694 0.950746
-0.025492 -0.587594 0.808754
0.025492 -0.587594 0.808754
0.028098 -0.308694 0.950746
-0.025492 -0.587594 -0.808754
-0.028098 -0.308693 -0.950747
0.028098 -0.308693 -0.950746
0.025492 -0.587594 -0.808754
-0.028098 -0.308693 -0.950747
-0.028323 0.308893 -0.950675
0.028323 0.308893 -0.950675
0.028098 -0.308693 -0.950746
-0.028323 0.308893 -0.950675
-0.028323 0.808692 -0.587549
0.028323 0.808693 -0.587549
0.028323 0.308893 -0.950675
-0.028323 0.808692 -0.587549
-0.028323 0.999599 0.000000
0.028323 0.999599 0.000000
0.028323 0.808693 -0.587549
-0.028323 0.999599 0.000000
-0.028323 0.808693 0.587549
0.028323 0.808693 0.587549
0.028323 0.999599 0.000000
-0.961716 0.084685 0.260635
-0.961716 0.221709 0.161081
-1.000000 0.000000 0.000000
-0.960443 -0.081726 0.266215
-0.961716 0.084685 0.260635
-1.000000 0.000000 0.000000
-0.952992 -0.291207 0.083690
-0.960443 -0.081726 0.266215
-1.000000 0.000000 0.000000
-0.960443 -0.081726 -0.266215
-0.952992 -0.291207 -0.083690
-1.000000 0.000000 0.000000
-0.961716 0.084685 -0.260635
-0.960443 -0.081726 -0.266215
-1.000000 0.000000 0.000000
-0.961716 0.221709 -0.161081
-0.961716 0.084685 -0.260635
-1.000000 0.000000 0.000000
-0.961716 0.274048 0.000000
-0.961716 0.221709 -0.161081
-1.000000 0.000000 0.000000
-0.961716 0.221709 0.161081
-0.961716 0.274048 0.000000
-1.000000 0.000000 0.000000
0.961716 0.221709 0.161081
0.961716 0.084685 0.260635
1.000000 0.000000 0.000000
0.961716 0.084685 0.260635
0.960443 -0.081726 0.266214
1.000000 0.000000 0.000000
0.960443 -0.081726 0.266214
0.952992 -0.291207 0.083690
1.000000 0.000000 0.000000
0.952992 -0.291207 -0.083690
0.960443 -0.081725 -0.266214
1.000000 0.000000 0.000000
0.960443 -0.081725 -0.266214
0.961716 0.084685 -0.260635
1.000000 0.000000 0.000000
0.961716 0.084685 -0.260635
0.961716 0.221709 -0.161081
1.000000 0.000000 0.000000
0.961716 0.221709 -0.161081
0.961716 0.274048 0.000000
1.000000 0.000000 0.000000
0.961716 0.274048 0.000000
0.961716 0.221709 0.161081
1.000000 0.000000 0.000000
0.026159 -0.999658 -0.000000
-0.026159 -0.999658 -0.000000
-0.026159 -0.999658 -0.000000
0.026159 -0.999658 -0.000000
-1.000000 0.000000 0.000000
-0.952992 -0.291207 -0.083690
-0.952992 -0.291207 0.083690
0.952992 -0.291207 0.083690
0.952992 -0.291207 -0.083690
1.000000 0.000000 0.000000
-0.028323 0.808693 0.587549
-0.349718 0.757932 0.550669
-0.349718 0.289504 0.891002
-0.028323 0.308893 0.950675
-0.908620 0.337865 0.245473
-0.961716 0.221709 0.161081
-0.961716 0.084685 0.260635
-0.908620 0.129053 0.397184
-0.028323 0.308893 0.950675
-0.349718 0.289504 0.891002
-0.349717 -0.286995 0.891814
-0.028098 -0.308694 0.950746
-0.908620 0.129053 0.397184
-0.961716 0.084685 0.260635
-0.960443 -0.081726 0.266215
-0.908599 -0.122575 0.399279
-0.028098 -0.308694 0.950746
-0.349717 -0.286995 0.891814
-0.334561 -0.553913 0.762397
-0.025492 -0.587594 0.808754
-0.908599 -0.122575 0.399279
-0.960443 -0.081726 0.266215
-0.952992 -0.291207 0.083690
-0.915783 -0.386047 0.110947
-0.026159 -0.999658 -0.000000
-0.334561 -0.942374 -0.000000
-0.334561 -0.942374 -0.000000
-0.026159 -0.999658 -0.000000
-0.915783 -0.386047 0.110947
-0.952992 -0.291207 0.083690
-0.952992 -0.291207 -0.083690
-0.915783 -0.386047 -0.110947
-0.028098 -0.308693 -0.950747
-0.349717 -0.286995 -0.891814
-0.349718 0.289504 -0.891002
-0.028323 0.308893 -0.950675
-0.908599 -0.122575 -0.399279
-0.960443 -0.081726 -0.266215
-0.961716 0.084685 -0.260635
-0.908620 0.129053 -0.397184
-0.028323 0.308893 -0.950675
-0.349718 0.289504 -0.891002
-0.349718 0.757932 -0.550669
-0.028323 0.808692 -0.587549
-0.908620 0.129053 -0.397184
-0.961716 0.084685 -0.260635
-0.961716 0.221709 -0.161081
-0.908620 0.337865 -0.245473
-0.028323 0.808692 -0.587549
-0.349718 0.757932 -0.550669
-0.349718 0.936855 -0.000000
-0.028323 0.999599 0.000000
-0.908620 0.337865 -0.245473
-0.961716 0.221709 -0.161081
-0.961716 0.274048 0.000000
-0.908620 0.417624 0.000000
-0.961716 0.221709 0.161081
-0.908620 0.337865 0.245473
-0.908620 0.417624 0.000000
-0.961716 0.274048 0.000000
-0.349718 0.757932 0.550669
-0.028323 0.808693 0.587549
-0.028323 0.999599 0.000000
-0.349718 0.936855 -0.000000
0.028323 0.808693 0.587549
0.349718 0.757932 0.550669
0.349718 0.936855 0.000000
0.028323 0.999599 0.000000
0.908620 0.337865 0.245473
0.961716 0.221709 0.161081
0.961716 0.274048 0.000000
0.908620 0.417624 0.000000
0.961716 0.221709 0.161081
0.908620 0.337865 0.245473
0.908620 0.129053 0.397184
0.961716 0.084685 0.260635
0.349718 0.757932 0.550669
0.028323 0.808693 0.587549
0.028323 0.308893 0.950675
0.349718 0.289504 0.891002
0.961716 0.084685 0.260635
0.908620 0.129053 0.397184
0.908599 -0.122575 0.399278
0.960443 -0.081726 0.266214
0.349718 0.289504 0.891002
0.028323 0.308893 0.950675
0.028098 -0.308694 0.950746
0.349717 -0.286995 0.891814
0.952992 -0.291207 0.083690
0.915783 -0.386047 0.110947
0.915783 -0.386047 -0.110947
0.952992 -0.291207 -0.083690
0.334561 -0.942374 -0.000000
0.026159 -0.999658 -0.000000
0.026159 -0.999658 -0.000000
0.334561 -0.942374 -0.000000
0.952992 -0.291207 -0.083690
0.915783 -0.386047 -0.110947
0.908599 -0.122575 -0.399278
0.960443 -0.081725 -0.266214
0.334561 -0.553914 -0.762397
0.025492 -0.587594 -0.808754
0.028098 -0.308693 -0.950746
0.349717 -0.286995 -0.891814
0.960443 -0.081725 -0.266214
0.908599 -0.122575 -0.399278
0.908620 0.129053 -0.397184
0.961716 0.084685 -0.260635
0.349717 -0.286995 -0.891814
0.028098 -0.308693 -0.950746
0.028323 0.308893 -0.950675
0.349718 0.289504 -0.891002
0.961716 0.084685 -0.260635
0.908620 0.129053 -0.397184
0.908620 0.337865 -0.245473
0.961716 0.221709 -0.161081
0.349718 0.289504 -0.891002
0.028323 0.308893 -0.950675
0.028323 0.808693 -0.587549
0.349718 0.757932 -0.550669
0.961716 0.221709 -0.161081
0.908620 0.337865 -0.245473
0.908620 0.417624 0.000000
0.961716 0.274048 0.000000
0.349718 0.757932 -0.550669
0.028323 0.808693 -0.587549
0.028323 0.999599 0.000000
0.349718 0.936855 0.000000
-0.684440 0.428537 -0.589829
-0.684440 0.428537 -0.589829
-0.684440 0.693386 -0.225295
-0.684440 0.693386 -0.225295
-0.684440 0.428537 -0.589829
-0.684440 0.428537 -0.589829
-0.684440 -0.000000 -0.729069
-0.684440 0.000000 -0.729069
-0.684440 0.693386 -0.225295
-0.684440 0.693386 -0.225295
-0.684440 0.693386 0.225295
-0.684440 0.693386 0.225295
-0.684440 0.693386 0.225295
-0.684440 0.693386 0.225295
-0.684440 0.428536 0.589829
-0.684440 0.428537 0.589829
-0.684440 0.428537 0.589829
-0.684440 0.428536 0.589829
-0.684440 0.000000 0.729069
-0.684440 -0.000000 0.729069
-0.684440 -0.000000 0.729069
-0.684440 0.000000 0.729069
-0.684440 -0.428536 0.589829
-0.684440 -0.428536 0.589829
-0.684440 -0.428536 0.589829
-0.684440 -0.428536 0.589829
-0.684441 -0.693386 0.225294
-0.684440 -0.693386 0.225294
-0.684440 -0.693386 0.225294
-0.684441 -0.693386 0.225294
-0.684440 -0.693386 -0.225294
-0.684440 -0.693386 -0.225294
-0.684440 -0.693386 -0.225294
-0.684440 -0.693386 -0.225294
-0.684440 -0.428536 -0.589829
-0.684440 -0.428536 -0.589829
-0.684440 -0.428536 -0.589829
-0.684440 -0.428536 -0.589829
-0.684440 0.000000 -0.729069
-0.684440 -0.000000 -0.729069
0.684440 0.428536 -0.589830
0.684440 0.428536 -0.589830
0.684440 -0.000000 -0.729070
0.684440 -0.000000 -0.729070
0.684440 0.428536 -0.589830
0.684440 0.428536 -0.589830
0.684440 0.693386 -0.225295
0.684440 0.693386 -0.225296
0.684440 0.693386 -0.225296
0.684440 0.693386 -0.225295
0.684440 0.693386 0.225295
0.684440 0.693386 0.225295
0.684440 0.693386 0.225295
0.684440 0.693386 0.225295
0.684440 0.428536 0.589829
0.684440 0.428536 0.589829
0.684440 0.428536 0.589829
0.684440 0.428536 0.589829
0.684440 -0.000000 0.729069
0.684440 -0.000000 0.729069
0.684440 -0.000000 0.729069
0.684440 -0.000000 0.729069
0.684440 -0.428536 0.589829
0.684440 -0.428536 0.589829
0.684440 -0.428536 0.589829
0.684440 -0.428536 0.589829
0.684441 -0.693385 0.225295
0.684441 -0.693385 0.225295
0.684441 -0.693385 0.225295
0.684441 -0.693385 0.225295
0.684440 -0.693386 -0.225294
0.684440 -0.693386 -0.225295
0.684440 -0.693386 -0.225295
0.684440 -0.693386 -0.225294
0.684440 -0.428536 -0.589829
0.684440 -0.428536 -0.589829
0.684440 -0.428536 -0.589829
0.684440 -0.428536 -0.589829
0.684440 -0.000000 -0.729070
0.684440 -0.000000 -0.729070
-0.724617 0.405074 -0.557535
-0.724617 0.405074 -0.557535
-0.724617 0.655422 -0.212959
-0.724617 0.655422 -0.212959
-0.724617 0.405074 -0.557535
-0.724617 0.405074 -0.557535
-0.724617 0.000000 -0.689152
-0.724617 0.000000 -0.689152
-0.724617 0.655422 -0.212959
-0.724617 0.655422 -0.212959
-0.724617 0.655422 0.212960
-0.724617 0.655422 0.212960
-0.724617 0.655422 0.212960
-0.724617 0.655422 0.212960
-0.724617 0.405073 0.557535
-0.724617 0.405073 0.557535
-0.724617 0.405073 0.557535
-0.724617 0.405073 0.557535
-0.724617 -0.000000 0.689152
-0.724617 -0.000000 0.689152
-0.724617 -0.000000 0.689152
-0.724617 -0.000000 0.689152
-0.724617 -0.405073 0.557535
-0.724617 -0.405073 0.557535
-0.724617 -0.405073 0.557535
-0.724617 -0.405073 0.557535
-0.724617 -0.655422 0.212959
-0.724617 -0.655422 0.212960
-0.724617 -0.655422 0.212960
-0.724617 -0.655422 0.212959
-0.724617 -0.655423 -0.212960
-0.724617 -0.655423 -0.212960
-0.724617 -0.655423 -0.212960
-0.724617 -0.655423 -0.212960
-0.724617 -0.405074 -0.557535
-0.724617 -0.405074 -0.557535
-0.724617 -0.405074 -0.557535
-0.724617 -0.405074 -0.557535
-0.724617 0.000000 -0.689152
-0.724617 0.000000 -0.689152
0.724617 0.405073 -0.557536
0.724617 0.405073 -0.557536
0.724617 0.000000 -0.689152
0.724617 0.000000 -0.689152
0.724617 0.405073 -0.557536
0.724617 0.405073 -0.557536
0.724617 0.655422 -0.212960
0.724617 0.655422 -0.212959
0.724617 0.655422 -0.212959
0.724617 0.655422 -0.212960
0.724617 0.655422 0.212960
0.724617 0.655422 0.212960
0.724617 0.655422 0.212960
0.724617 0.655422 0.212960
0.724617 0.405073 0.557536
0.724617 0.405073 0.557536
0.724617 0.405073 0.557536
0.724617 0.405073 0.557536
0.724617 0.000000 0.689152
0.724617 0.000000 0.689152
0.724617 0.000000 0.689152
0.724617 0.000000 0.689152
0.724617 -0.405073 0.557536
0.724617 -0.405073 0.557536
0.724617 -0.405073 0.557536
0.724617 -0.405073 0.557536
0.724617 -0.655422 0.212960
0.724617 -0.655422 0.212960
0.724617 -0.655422 0.212960
0.724617 -0.655422 0.212960
0.724617 -0.655422 -0.212960
0.724617 -0.655422 -0.212960
0.724617 -0.655422 -0.212960
0.724617 -0.655422 -0.212960
0.724617 -0.405073 -0.557536
0.724617 -0.405073 -0.557536
0.724617 -0.405073 -0.557536
0.724617 -0.405073 -0.557536
0.724617 0.000000 -0.689152
0.724617 0.000000 -0.689152
-0.684440 0.428536 -0.589830
-0.684440 0.428536 -0.589830
-0.684440 0.693386 -0.225295
-0.684440 0.693386 -0.225295
-0.684440 0.428536 -0.589830
-0.684440 0.428536 -0.589830
-0.684439 0.000000 -0.729070
-0.684439 0.000000 -0.729070
-0.684440 0.693386 -0.225295
-0.684440 0.693386 -0.225295
-0.684440 0.693386 0.225295
-0.684440 0.693386 0.225295
-0.684440 0.693386 0.225295
-0.684440 0.693386 0.225295
-0.684440 0.428536 0.589829
-0.684440 0.428536 0.589829
-0.684440 0.428536 0.589829
-0.684440 0.428536 0.589829
-0.684440 0.000000 0.729069
-0.684440 0.000001 0.729069
-0.684440 0.000001 0.729069
-0.684440 0.000000 0.729069
-0.684440 -0.428536 0.589829
-0.684440 -0.428536 0.589829
-0.684440 -0.428536 0.589829
-0.684440 -0.428536 0.589829
-0.684440 -0.693386 0.225294
-0.684440 -0.693386 0.225295
-0.684440 -0.693386 0.225295
-0.684440 -0.693386 0.225294
-0.684440 -0.693386 -0.225295
-0.684440 -0.693386 -0.225295
-0.684440 -0.693386 -0.225295
-0.684440 -0.693386 -0.225295
-0.684440 -0.428536 -0.589830
-0.684440 -0.428536 -0.589830
-0.684440 -0.428536 -0.589830
-0.684440 -0.428536 -0.589830
-0.684439 0.000000 -0.729070
-0.684439 0.000000 -0.729070
0.684440 0.428537 -0.589830
0.684439 0.428537 -0.589830
0.684440 0.000000 -0.729070
0.684440 0.000000 -0.729069
0.684439 0.428537 -0.589830
0.684440 0.428537 -0.589830
0.684439 0.693387 -0.225295
0.684439 0.693387 -0.225295
0.684439 0.693387 -0.225295
0.684439 0.693387 -0.225295
0.684440 0.693386 0.225295
0.684440 0.693386 0.225295
0.684440 0.693386 0.225295
0.684440 0.693386 0.225295
0.684439 0.428537 0.589830
0.684439 0.428537 0.589830
0.684439 0.428537 0.589830
0.684439 0.428537 0.589830
0.684440 0.000000 0.729069
0.684440 0.000000 0.729069
0.684440 0.000000 0.729069
0.684440 0.000000 0.729069
0.684440 -0.428536 0.589829
0.684440 -0.428536 0.589829
0.684440 -0.428536 0.589829
0.684440 -0.428536 0.589829
0.684440 -0.693386 0.225295
0.684440 -0.693386 0.225294
0.684440 -0.693386 0.225294
0.684440 -0.693386 0.225295
0.684440 -0.693386 -0.225295
0.684440 -0.693386 -0.225295
0.684440 -0.693386 -0.225295
0.684440 -0.693386 -0.225295
0.684440 -0.428536 -0.589830
0.684440 -0.428536 -0.589830
0.684440 -0.428536 -0.589830
0.684440 -0.428536 -0.589830
0.684440 0.000000 -0.729069
0.684440 0.000000 -0.729070
-0.000000 0.587785 -0.809017
0.000000 0.951056 -0.309017
0.000000 0.951056 -0.309018
-0.000000 0.587785 -0.809017
0.000000 0.951056 -0.309017
0.000000 0.951056 0.309018
0.000000 0.951056 0.309018
0.000000 0.951056 -0.309018
0.000000 0.951056 0.309018
0.000000 0.587785 0.809017
0.000000 0.587785 0.809017
0.000000 0.951056 0.309018
0.000000 0.587785 0.809017
0.000000 -0.000000 1.000000
0.000000 0.000000 1.000000
0.000000 0.587785 0.809017
0.000000 -0.000000 1.000000
-0.000000 -0.587785 0.809017
-0.000000 -0.587785 0.809017
0.000000 0.000000 1.000000
-0.000000 -0.587785 0.809017
-0.000000 -0.951056 0.309017
-0.000000 -0.951056 0.309017
-0.000000 -0.587785 0.809017
-0.000000 -0.951056 0.309017
-0.000000 -0.951056 -0.309017
-0.000000 -0.951056 -0.309017
-0.000000 -0.951056 0.309017
-0.000000 -0.951056 -0.309017
-0.000000 -0.587785 -0.809017
-0.000000 -0.587785 -0.809017
-0.000000 -0.951056 -0.309017
-0.000000 -0.587785 -0.809017
-0.000000 -0.000000 -1.000000
-0.000000 -0.000000 -1.000000
-0.000000 -0.587785 -0.809017
-0.000000 -0.000000 -1.000000
-0.000000 0.587785 -0.809017
-0.000000 0.587785 -0.809017
-0.000000 -0.000000 -1.000000
-1.000000 0.000000 0.000000
-1.000000 0.000000 0.000001
-1.000000 0.000000 0.000000
-1.000000 0.000000 0.000000
-1.000000 0.000000 0.000000
-1.000000 0.000000 0.000000
-1.000000 0.000000 0.000000
-1.000000 0.000000 0.000000
-1.000000 0.000000 0.000000
-1.000000 0.000000 0.000000
-1.000000 0.000000 0.000000
-1.000000 0.000000 0.000000
-1.000000 0.000000 0.000000
-1.000000 0.000000 0.000000
-1.000000 0.000000 0.000000
-1.000000 0.000000 0.000000
-1.000000 0.000000 0.000000
-1.000000 0.000000 0.000000
-1.000000 0.000000 0.000000
-1.000000 0.000000 0.000000
-1.000000 0.000000 0.000000
-1.000000 0.000000 0.000001
-1.000000 0.000000 0.000000
-1.000000 0.000000 0.000000
-1.000000 0.000000 0.000001
-1.000000 0.000000 0.000001
-1.000000 0.000000 0.000000
-1.000000 0.000000 0.000001
-1.000000 0.000000 0.000001
-1.000000 0.000000 0.000000
1.000000 0.000000 0.000001
1.000000 0.000000 -0.000000
1.000000 0.000000 0.000000
1.000000 0.000000 -0.000000
1.000000 0.000000 -0.000000
1.000000 0.000000 0.000000
1.000000 0.000000 -0.000000
1.000000 0.000000 0.000001
1.000000 0.000000 0.000000
1.000000 0.000000 0.000001
1.000000 0.000000 0.000000
1.000000 0.000000 0.000000
1.000000 0.000000 0.000000
1.000000 0.000000 0.000000
1.000000 0.000000 0.000000
1.000000 0.000000 0.000000
1.000000 0.000000 0.000000
1.000000 0.000000 0.000000
1.000000 0.000000 0.000000
1.000000 0.000000 0.000001
1.000000 0.000000 0.000000
1.000000 0.000000 0.000001
1.000000 0.000000 0.000001
1.000000 0.000000 0.000000
1.000000 0.000000 0.000001
1.000000 0.000000 0.000000
1.000000 0.000000 0.000000
1.000000 0.000000 0.000000
1.000000 0.000000 0.000001
1.000000 0.000000 0.000000
0.000000 0.587785 -0.809017
0.000000 0.951056 -0.309017
0.000000 0.951056 -0.309017
0.000000 0.587785 -0.809017
0.000000 0.951056 -0.309017
-0.000000 0.951056 0.309017
-0.000000 0.951056 0.309017
0.000000 0.951056 -0.309017
-0.000000 0.951056 0.309017
0.000000 0.587785 0.809017
0.000000 0.587785 0.809017
-0.000000 0.951056 0.309017
0.000000 0.587785 0.809017
0.000000 -0.000000 1.000000
0.000000 -0.000000 1.000000
0.000000 0.587785 0.809017
0.000000 -0.000000 1.000000
-0.000000 -0.587785 0.809017
-0.000000 -0.587785 0.809017
0.000000 -0.000000 1.000000
-0.000000 -0.587785 0.809017
-0.000000 -0.951057 0.309017
-0.000000 -0.951057 0.309017
-0.000000 -0.587785 0.809017
-0.000000 -0.951057 0.309017
0.000000 -0.951057 -0.309017
0.000000 -0.951057 -0.309017
-0.000000 -0.951057 0.309017
0.000000 -0.951057 -0.309017
0.000000 -0.587785 -0.809017
0.000000 -0.587785 -0.809017
0.000000 -0.951057 -0.309017
0.000000 -0.587785 -0.809017
0.000000 0.000000 -1.000000
0.000000 0.000000 -1.000000
0.000000 -0.587785 -0.809017
0.000000 0.000000 -1.000000
0.000000 0.587785 -0.809017
0.000000 0.587785 -0.809017
0.000000 0.000000 -1.000000
-1.000000 0.000000 0.000000
-1.000000 0.000000 0.000000
-1.000000 -0.000000 0.000000
-1.000000 -0.000000 0.000000
-1.000000 0.000000 0.000000
-1.000000 -0.000000 0.000000
-1.000000 0.000000 0.000000
-1.000000 -0.000000 0.000000
-1.000000 -0.000000 0.000000
-1.000000 0.000000 0.000000
-1.000000 0.000000 0.000000
-1.000000 -0.000000 0.000000
-1.000000 0.000000 0.000000
-1.000000 0.000000 0.000000
-1.000000 -0.000000 0.000000
-1.000000 0.000000 0.000000
-1.000000 0.000000 0.000000
-1.000000 -0.000000 0.000000
-1.000000 -0.000001 0.000000
-1.000000 0.000000 0.000000
-1.000000 -0.000000 0.000000
-1.000000 -0.000001 0.000000
-1.000000 -0.000001 0.000000
-1.000000 -0.000000 0.000000
-1.000000 -0.000001 -0.000000
-1.000000 -0.000001 0.000000
-1.000000 -0.000000 0.000000
-1.000000 0.000000 0.000000
-1.000000 -0.000001 -0.000000
-1.000000 -0.000000 0.000000
1.000000 0.000000 -0.000000
1.000000 0.000000 0.000000
1.000000 0.000000 -0.000000
1.000000 0.000000 0.000000
1.000000 0.000000 0.000000
1.000000 0.000000 -0.000000
1.000000 0.000000 0.000000
1.000000 0.000000 -0.000001
1.000000 0.000000 -0.000000
1.000000 0.000000 -0.000001
1.000000 0.000000 -0.000000
1.000000 0.000000 -0.000000
1.000000 0.000000 -0.000000
1.000000 0.000000 -0.000000
1.000000 0.000000 -0.000000
1.000000 0.000000 -0.000000
1.000000 0.000000 0.000000
1.000000 0.000000 -0.000000
1.000000 0.000000 0.000000
1.000000 -0.000000 0.000000
1.000000 0.000000 -0.000000
1.000000 -0.000000 0.000000
1.000000 -0.000000 -0.000000
1.000000 0.000000 -0.000000
1.000000 -0.000000 -0.000000
1.000000 0.000000 0.000000
1.000000 0.000000 -0.000000
1.000000 0.000000 0.000000
1.000000 0.000000 -0.000000
1.000000 0.000000 -0.000000
0.000000 0.587785 -0.809017
0.000000 0.951057 -0.309016
0.000000 0.951057 -0.309016
0.000000 0.587785 -0.809017
0.000000 0.951057 -0.309016
0.000000 0.951057 0.309017
0.000000 0.951057 0.309017
0.000000 0.951057 -0.309016
0.000000 0.951057 0.309017
0.000000 0.587785 0.809017
0.000000 0.587785 0.809017
0.000000 0.951057 0.309017
0.000000 0.587785 0.809017
0.000000 0.000000 1.000000
0.000000 0.000000 1.000000
0.000000 0.587785 0.809017
0.000000 0.000000 1.000000
0.000000 -0.587785 0.809017
0.000000 -0.587785 0.809017
0.000000 0.000000 1.000000
0.000000 -0.587785 0.809017
0.000000 -0.951056 0.309017
0.000000 -0.951056 0.309017
0.000000 -0.587785 0.809017
0.000000 -0.951056 0.309017
0.000000 -0.951057 -0.309017
0.000000 -0.951057 -0.309017
0.000000 -0.951056 0.309017
0.000000 -0.951057 -0.309017
0.000000 -0.587785 -0.809017
0.000000 -0.587785 -0.809017
0.000000 -0.951057 -0.309017
0.000000 -0.587785 -0.809017
0.000000 -0.000000 -1.000000
0.000000 -0.000000 -1.000000
0.000000 -0.587785 -0.809017
0.000000 -0.000000 -1.000000
0.000000 0.587785 -0.809017
0.000000 0.587785 -0.809017
0.000000 -0.000000 -1.000000
-1.000000 -0.000001 0.000001
-1.000000 -0.000001 0.000001
-1.000000 -0.000000 -0.000000
-1.000000 -0.000001 0.000000
-1.000000 -0.000001 0.000001
-1.000000 -0.000000 -0.000000
-1.000000 0.000000 -0.000001
-1.000000 -0.000001 0.000000
-1.000000 -0.000000 -0.000000
-1.000000 0.000000 -0.000001
-1.000000 0.000000 -0.000001
-1.000000 -0.000000 -0.000000
-1.000000 0.000001 -0.000001
-1.000000 0.000000 -0.000001
-1.000000 -0.000000 -0.000000
-1.000000 0.000001 -0.000001
-1.000000 0.000001 -0.000001
-1.000000 -0.000000 -0.000000
-1.000000 -0.000001 0.000000
-1.000000 0.000001 -0.000001
-1.000000 -0.000000 -0.000000
-1.000000 0.000000 0.000001
-1.000000 -0.000001 0.000000
-1.000000 -0.000000 -0.000000
-1.000000 0.000000 0.000000
-1.000000 0.000000 0.000001
-1.000000 -0.000000 -0.000000
-1.000000 -0.000001 0.000001
-1.000000 0.000000 0.000000
-1.000000 -0.000000 -0.000000
1.000000 0.000003 -0.000001
1.000000 0.000001 -0.000001
1.000000 0.000000 0.000000
1.000000 0.000001 -0.000001
1.000000 0.000000 0.000001
1.000000 0.000000 0.000000
1.000000 0.000000 0.000001
1.000000 0.000002 0.000001
1.000000 0.000000 0.000000
1.000000 0.000002 0.000001
1.000000 0.000000 0.000000
1.000000 0.000000 0.000000
1.000000 0.000000 0.000000
1.000000 -0.000003 0.000001
1.000000 0.000000 0.000000
1.000000 -0.000003 0.000001
1.000000 -0.000001 0.000001
1.000000 0.000000 0.000000
1.000000 -0.000001 0.000001
1.000000 0.000001 -0.000001
1.000000 0.000000 0.000000
1.000000 0.000001 -0.000001
1.000000 -0.000001 -0.000001
1.000000 0.000000 0.000000
1.000000 -0.000001 -0.000001
1.000000 0.000000 0.000000
1.000000 0.000000 0.000000
1.000000 0.000000 0.000000
1.000000 0.000003 -0.000001
1.000000 0.000000 0.000000
0.015749 -0.999648 0.021333
0.010018 -0.909336 0.415942
-0.010018 -0.909336 0.415942
-0.015749 -0.999648 0.021333
0.009028 -0.349079 0.937050
0.014972 -0.120423 0.992610
-0.014972 -0.120423 0.992610
-0.009028 -0.349079 0.937050
0.999332 -0.031691 0.018218
0.924355 -0.381297 0.013414
0.924355 -0.381297 -0.013414
0.999332 -0.031691 -0.018218
0.381298 -0.924355 0.013414
0.015749 -0.999648 0.021333
0.015749 -0.999648 -0.021333
0.381298 -0.924355 -0.013414
0.014972 -0.120423 0.992610
0.361369 -0.104098 0.926594
0.364453 -0.064292 0.929000
0.014506 -0.058008 0.998211
0.916086 -0.053779 0.397359
0.999332 -0.031691 0.018218
0.999169 0.034429 0.021829
0.918391 -0.010776 0.395527
0.014972 -0.120423 -0.992610
0.009028 -0.349079 -0.937050
-0.009028 -0.349079 -0.937050
-0.014972 -0.120423 -0.992610
0.010018 -0.909336 -0.415942
0.015749 -0.999648 -0.021333
-0.015749 -0.999648 -0.021333
-0.010018 -0.909336 -0.415942
0.999332 -0.031691 -0.018218
0.916086 -0.053779 -0.397360
0.918391 -0.010776 -0.395528
0.999169 0.034429 -0.021829
0.361369 -0.104098 -0.926594
0.014972 -0.120423 -0.992610
0.014506 -0.058008 -0.998211
0.364453 -0.064292 -0.929000
0.014506 -0.058008 0.998211
0.009986 0.381551 0.924294
-0.009986 0.381551 0.924294
-0.014506 -0.058008 0.998211
0.009986 0.924294 0.381551
0.015754 0.999690 0.019257
-0.015754 0.999690 0.019257
-0.009986 0.924294 0.381551
0.015754 0.999690 0.019257
0.381295 0.924373 0.012197
0.381295 0.924373 -0.012197
0.015754 0.999690 -0.019257
0.924374 0.381293 0.012197
0.999169 0.034429 0.021829
0.999169 0.034429 -0.021829
0.924374 0.381293 -0.012197
0.015754 0.999690 -0.019257
0.009986 0.924294 -0.381551
-0.009986 0.924294 -0.381551
-0.015754 0.999690 -0.019257
0.009986 0.381551 -0.924294
0.014506 -0.058008 -0.998211
-0.014506 -0.058008 -0.998211
-0.009986 0.381551 -0.924294
-0.014506 -0.058008 0.998211
-0.364453 -0.064292 0.929000
-0.361369 -0.104098 0.926594
-0.014972 -0.120423 0.992610
-0.918391 -0.010776 0.395528
-0.999169 0.034429 0.021829
-0.999332 -0.031692 0.018218
-0.916086 -0.053779 0.397360
-0.999169 0.034429 0.021829
-0.924374 0.381294 0.012197
-0.924373 0.381294 -0.012197
-0.999169 0.034429 -0.021829
-0.381295 0.924373 0.012197
-0.015754 0.999690 0.019257
-0.015754 0.999690 -0.019257
-0.381295 0.924373 -0.012197
-0.999169 0.034429 -0.021829
-0.918391 -0.010776 -0.395528
-0.916086 -0.053779 -0.397360
-0.999332 -0.031692 -0.018218
-0.364452 -0.064292 -0.929000
-0.014506 -0.058008 -0.998211
-0.014972 -0.120423 -0.992610
-0.361368 -0.104098 -0.926594
-0.015749 -0.999648 0.021333
-0.381298 -0.924355 0.013414
-0.381298 -0.924355 -0.013414
-0.015749 -0.999648 -0.021333
-0.924355 -0.381297 0.013414
-0.999332 -0.031692 0.018218
-0.999332 -0.031692 -0.018218
-0.924355 -0.381297 -0.013414
0.999332 -0.031691 0.018218
0.999332 -0.031691 -0.018218
0.999169 0.034429 -0.021829
0.999169 0.034429 0.021829
0.015754 0.999690 0.019257
0.015754 0.999690 -0.019257
-0.015754 0.999690 -0.019257
-0.015754 0.999690 0.019257
-0.999169 0.034429 0.021829
-0.999169 0.034429 -0.021829
-0.999332 -0.031692 -0.018218
-0.999332 -0.031692 0.018218
-0.015749 -0.999648 0.021333
-0.015749 -0.999648 -0.021333
0.015749 -0.999648 -0.021333
0.015749 -0.999648 0.021333
0.014972 -0.120423 -0.992610
-0.014972 -0.120423 -0.992610
-0.014506 -0.058008 -0.998211
0.014506 -0.058008 -0.998211
-0.014972 -0.120423 0.992610
0.014972 -0.120423 0.992610
0.014506 -0.058008 0.998211
-0.014506 -0.058008 0.998211
0.361369 -0.104098 0.926594
0.014972 -0.120423 0.992610
0.009028 -0.349079 0.937050
0.299467 -0.299467 0.905891
0.010018 -0.909336 0.415942
0.015749 -0.999648 0.021333
0.381298 -0.924355 0.013414
0.321416 -0.877400 0.356175
0.924355 -0.381297 0.013414
0.999332 -0.031691 0.018218
0.916086 -0.053779 0.397359
0.877400 -0.321415 0.356175
0.381298 -0.924355 -0.013414
0.015749 -0.999648 -0.021333
0.010018 -0.909336 -0.415942
0.321416 -0.877400 -0.356175
0.009028 -0.349079 -0.937050
0.014972 -0.120423 -0.992610
0.361369 -0.104098 -0.926594
0.299467 -0.299467 -0.905891
0.916086 -0.053779 -0.397360
0.999332 -0.031691 -0.018218
0.924355 -0.381297 -0.013414
0.877400 -0.321415 -0.356175
0.381295 0.924373 0.012197
0.015754 0.999690 0.019257
0.009986 0.924294 0.381551
0.325270 0.887918 0.325270
0.009986 0.381551 0.924294
0.014506 -0.058008 0.998211
0.364453 -0.064292 0.929000
0.325269 0.325269 0.887919
0.918391 -0.010776 0.395527
0.999169 0.034429 0.021829
0.924374 0.381293 0.012197
0.887919 0.325268 0.325269
0.364453 -0.064292 -0.929000
0.014506 -0.058008 -0.998211
0.009986 0.381551 -0.924294
0.325271 0.325269 -0.887918
0.009986 0.924294 -0.381551
0.015754 0.999690 -0.019257
0.381295 0.924373 -0.012197
0.325270 0.887919 -0.325269
0.924374 0.381293 -0.012197
0.999169 0.034429 -0.021829
0.918391 -0.010776 -0.395528
0.887919 0.325268 -0.325269
-0.924374 0.381294 0.012197
-0.999169 0.034429 0.021829
-0.918391 -0.010776 0.395528
-0.887919 0.325268 0.325269
-0.364453 -0.064292 0.929000
-0.014506 -0.058008 0.998211
-0.009986 0.381551 0.924294
-0.325271 0.325269 0.887918
-0.009986 0.924294 0.381551
-0.015754 0.999690 0.019257
-0.381295 0.924373 0.012197
-0.325270 0.887919 0.325269
-0.009986 0.381551 -0.924294
-0.014506 -0.058008 -0.998211
-0.364452 -0.064292 -0.929000
-0.325269 0.325270 -0.887919
-0.918391 -0.010776 -0.395528
-0.999169 0.034429 -0.021829
-0.924373 0.381294 -0.012197
-0.887919 0.325268 -0.325270
-0.381295 0.924373 -0.012197
-0.015754 0.999690 -0.019257
-0.009986 0.924294 -0.381551
-0.325269 0.887919 -0.325270
-0.381298 -0.924355 0.013414
-0.015749 -0.999648 0.021333
-0.010018 -0.909336 0.415942
-0.321416 -0.877400 0.356175
-0.009028 -0.349079 0.937050
-0.014972 -0.120423 0.992610
-0.361369 -0.104098 0.926594
-0.299467 -0.299467 0.905891
-0.916086 -0.053779 0.397360
-0.999332 -0.031692 0.018218
-0.924355 -0.381297 0.013414
-0.877400 -0.321415 0.356175
-0.361368 -0.104098 -0.926594
-0.014972 -0.120423 -0.992610
-0.009028 -0.349079 -0.937050
-0.299467 -0.299467 -0.905891
-0.010018 -0.909336 -0.415942
-0.015749 -0.999648 -0.021333
-0.381298 -0.924355 -0.013414
-0.321416 -0.877400 -0.356175
-0.924355 -0.381297 -0.013414
-0.999332 -0.031692 -0.018218
-0.916086 -0.053779 -0.397360
-0.877401 -0.321415 -0.356175
0.405073 0.783364 -0.471441
0.405074 0.783364 -0.471441
0.655422 0.744147 -0.129104
0.655422 0.744147 -0.129104
0.405074 0.783364 -0.471441
0.405073 0.783364 -0.471441
-0.000000 0.798344 -0.602202
-0.000000 0.798344 -0.602202
0.655422 0.744147 -0.129104
0.655422 0.744147 -0.129104
0.655422 0.695671 0.294047
0.655422 0.695671 0.294047
0.655422 0.695671 0.294047
0.655422 0.695671 0.294047
0.405073 0.656453 0.636384
0.405073 0.656453 0.636384
0.405073 0.656453 0.636384
0.405073 0.656453 0.636384
-0.000000 0.641473 0.767145
-0.000000 0.641473 0.767145
-0.000000 0.641473 0.767145
-0.000000 0.641473 0.767145
-0.405073 0.656453 0.636384
-0.405073 0.656453 0.636384
-0.405073 0.656453 0.636384
-0.405073 0.656453 0.636384
-0.655422 0.695671 0.294047
-0.655422 0.695671 0.294047
-0.655422 0.695671 0.294047
-0.655422 0.695671 0.294047
-0.655422 0.744146 -0.129104
-0.655422 0.744146 -0.129104
-0.655422 0.744146 -0.129104
-0.655422 0.744146 -0.129104
-0.405073 0.783364 -0.471441
-0.405073 0.783364 -0.471441
-0.405073 0.783364 -0.471441
-0.405073 0.783364 -0.471441
-0.000000 0.798344 -0.602202
-0.000000 0.798344 -0.602202
0.587785 0.092077 -0.803760
0.951056 0.035170 -0.307010
0.951056 0.035170 -0.307010
0.587785 0.092077 -0.803760
0.951056 0.035170 -0.307010
0.951056 -0.035170 0.307009
0.951056 -0.035170 0.307009
0.951056 0.035170 -0.307010
0.951056 -0.035170 0.307009
0.587785 -0.092077 0.803760
0.587785 -0.092077 0.803760
0.951056 -0.035170 0.307009
0.587785 -0.092077 0.803760
0.000000 -0.113814 0.993502
-0.000000 -0.113814 0.993502
0.587785 -0.092077 0.803760
0.000000 -0.113814 0.993502
-0.587785 -0.092077 0.803760
-0.587785 -0.092077 0.803760
-0.000000 -0.113814 0.993502
-0.587785 -0.092077 0.803760
-0.951057 -0.035170 0.307009
-0.951056 -0.035170 0.307009
-0.587785 -0.092077 0.803760
-0.951057 -0.035170 0.307009
-0.951056 0.035170 -0.307009
-0.951056 0.035170 -0.307009
-0.951056 -0.035170 0.307009
-0.951056 0.035170 -0.307009
-0.587785 0.092077 -0.803760
-0.587785 0.092077 -0.803760
-0.951056 0.035170 -0.307009
-0.587785 0.092077 -0.803760
0.000000 0.113814 -0.993502
0.000000 0.113814 -0.993502
-0.587785 0.092077 -0.803760
0.000000 0.113814 -0.993502
0.587785 0.092077 -0.803760
0.587785 0.092077 -0.803760
0.000000 0.113814 -0.993502
0.000000 0.993502 0.113813
0.000001 0.993502 0.113814
-0.000000 0.993502 0.113814
-0.000000 0.993502 0.113813
0.000000 0.993502 0.113813
-0.000000 0.993502 0.113814
-0.000001 0.993502 0.113815
-0.000000 0.993502 0.113813
-0.000000 0.993502 0.113814
-0.000000 0.993502 0.113814
-0.000001 0.993502 0.113815
-0.000000 0.993502 0.113814
0.000000 0.993502 0.113814
-0.000000 0.993502 0.113814
-0.000000 0.993502 0.113814
0.000000 0.993502 0.113813
0.000000 0.993502 0.113814
-0.000000 0.993502 0.113814
-0.000000 0.993502 0.113813
0.000000 0.993502 0.113813
-0.000000 0.993502 0.113814
-0.000001 0.993502 0.113815
-0.000000 0.993502 0.113813
-0.000000 0.993502 0.113814
-0.000000 0.993502 0.113814
-0.000001 0.993502 0.113815
-0.000000 0.993502 0.113814
0.000001 0.993502 0.113814
-0.000000 0.993502 0.113814
-0.000000 0.993502 0.113814
0.405073 0.783364 -0.471442
0.405073 0.783364 -0.471441
0.655422 0.744146 -0.129105
0.655422 0.744146 -0.129105
0.405073 0.783364 -0.471441
0.405073 0.783364 -0.471442
0.000000 0.798344 -0.602202
0.000000 0.798344 -0.602202
0.655422 0.744146 -0.129105
0.655422 0.744146 -0.129105
0.655422 0.695671 0.294047
0.655422 0.695671 0.294047
0.655422 0.695671 0.294047
0.655422 0.695671 0.294047
0.405073 0.656453 0.636384
0.405073 0.656454 0.636384
0.405073 0.656454 0.636384
0.405073 0.656453 0.636384
-0.000001 0.641473 0.767145
-0.000000 0.641473 0.767145
-0.000000 0.641473 0.767145
-0.000001 0.641473 0.767145
-0.405073 0.656453 0.636384
-0.405073 0.656453 0.636384
-0.405073 0.656453 0.636384
-0.405073 0.656453 0.636384
-0.655422 0.695671 0.294047
-0.655422 0.695671 0.294047
-0.655422 0.695671 0.294047
-0.655422 0.695671 0.294047
-0.655422 0.744146 -0.129104
-0.655422 0.744146 -0.129104
-0.655422 0.744146 -0.129104
-0.655422 0.744146 -0.129104
-0.405074 0.783364 -0.471441
-0.405074 0.783364 -0.471441
-0.405074 0.783364 -0.471441
-0.405074 0.783364 -0.471441
0.000000 0.798344 -0.602202
0.000000 0.798344 -0.602202
0.587785 0.092077 -0.803760
0.951056 0.035170 -0.307009
0.951056 0.035170 -0.307009
0.587785 0.092077 -0.803760
0.951056 0.035170 -0.307009
0.951057 -0.035170 0.307009
0.951056 -0.035170 0.307009
0.951056 0.035170 -0.307009
0.951057 -0.035170 0.307009
0.587785 -0.092077 0.803760
0.587785 -0.092077 0.803760
0.951056 -0.035170 0.307009
0.587785 -0.092077 0.803760
0.000000 -0.113814 0.993502
-0.000000 -0.113814 0.993502
0.587785 -0.092077 0.803760
0.000000 -0.113814 0.993502
-0.587785 -0.092077 0.803760
-0.587785 -0.092077 0.803760
-0.000000 -0.113814 0.993502
-0.587785 -0.092077 0.803760
-0.951057 -0.035170 0.307009
-0.951057 -0.035170 0.307009
-0.587785 -0.092077 0.803760
-0.951057 -0.035170 0.307009
-0.951056 0.035170 -0.307009
-0.951056 0.035170 -0.307009
-0.951057 -0.035170 0.307009
-0.951056 0.035170 -0.307009
-0.587785 0.092077 -0.803760
-0.587785 0.092077 -0.803760
-0.951056 0.035170 -0.307009
-0.587785 0.092077 -0.803760
0.000000 0.113814 -0.993502
0.000000 0.113814 -0.993502
-0.587785 0.092077 -0.803760
0.000000 0.113814 -0.993502
0.587785 0.092077 -0.803760
0.587785 0.092077 -0.803760
0.000000 0.113814 -0.993502
0.000000 0.993502 0.113813
0.000001 0.993502 0.113815
-0.000000 0.993502 0.113814
-0.000000 0.993502 0.113814
0.000000 0.993502 0.113813
-0.000000 0.993502 0.113814
-0.000001 0.993502 0.113815
-0.000000 0.993502 0.113814
-0.000000 0.993502 0.113814
-0.000000 0.993502 0.113815
-0.000001 0.993502 0.113815
-0.000000 0.993502 0.113814
0.000000 0.993502 0.113813
-0.000000 0.993502 0.113815
-0.000000 0.993502 0.113814
0.000000 0.993502 0.113813
0.000000 0.993502 0.113813
-0.000000 0.993502 0.113814
-0.000000 0.993502 0.113814
0.000000 0.993502 0.113813
-0.000000 0.993502 0.113814
-0.000001 0.993502 0.113814
-0.000000 0.993502 0.113814
-0.000000 0.993502 0.113814
-0.000000 0.993502 0.113814
-0.000001 0.993502 0.113814
-0.000000 0.993502 0.113814
0.000001 0.993502 0.113815
-0.000000 0.993502 0.113814
-0.000000 0.993502 0.113814
0.405073 0.783364 -0.471441
0.405073 0.783364 -0.471441
0.655422 0.744146 -0.129104
0.655422 0.744146 -0.129104
0.405073 0.783364 -0.471441
0.405073 0.783364 -0.471441
0.000000 0.798344 -0.602202
0.000000 0.798344 -0.602202
0.655422 0.744146 -0.129104
0.655422 0.744146 -0.129104
0.655422 0.695671 0.294047
0.655422 0.695671 0.294047
0.655422 0.695671 0.294047
0.655422 0.695671 0.294047
0.405073 0.656453 0.636384
0.405073 0.656453 0.636384
0.405073 0.656453 0.636384
0.405073 0.656453 0.636384
-0.000001 0.641474 0.767145
-0.000000 0.641474 0.767145
-0.000000 0.641474 0.767145
-0.000001 0.641474 0.767145
-0.405073 0.656454 0.636383
-0.405073 0.656454 0.636383
-0.405073 0.656454 0.636383
-0.405073 0.656454 0.636383
-0.655422 0.695671 0.294048
-0.655422 0.695671 0.294047
-0.655422 0.695671 0.294047
-0.655422 0.695671 0.294048
-0.655422 0.744147 -0.129104
-0.655422 0.744146 -0.129104
-0.655422 0.744146 -0.129104
-0.655422 0.744147 -0.129104
-0.405073 0.783364 -0.471441
-0.405074 0.783364 -0.471441
-0.405074 0.783364 -0.471441
-0.405073 0.783364 -0.471441
0.000000 0.798344 -0.602202
0.000000 0.798344 -0.602202
0.587785 0.092077 -0.803760
0.951057 0.035170 -0.307009
0.951057 0.035170 -0.307009
0.587785 0.092077 -0.803760
0.951057 0.035170 -0.307009
0.951056 -0.035170 0.307009
0.951056 -0.035170 0.307009
0.951057 0.035170 -0.307009
0.951056 -0.035170 0.307009
0.587785 -0.092077 0.803760
0.587785 -0.092077 0.803760
0.951056 -0.035170 0.307009
0.587785 -0.092077 0.803760
0.000000 -0.113814 0.993502
0.000000 -0.113814 0.993502
0.587785 -0.092077 0.803760
0.000000 -0.113814 0.993502
-0.587785 -0.092077 0.803760
-0.587785 -0.092077 0.803760
0.000000 -0.113814 0.993502
-0.587785 -0.092077 0.803760
-0.951056 -0.035170 0.307009
-0.951056 -0.035170 0.307009
-0.587785 -0.092077 0.803760
-0.951056 -0.035170 0.307009
-0.951056 0.035170 -0.307009
-0.951057 0.035170 -0.307009
-0.951056 -0.035170 0.307009
-0.951056 0.035170 -0.307009
-0.587785 0.092077 -0.803760
-0.587785 0.092077 -0.803760
-0.951057 0.035170 -0.307009
-0.587785 0.092077 -0.803760
0.000000 0.113814 -0.993502
0.000000 0.113814 -0.993502
-0.587785 0.092077 -0.803760
0.000000 0.113814 -0.993502
0.587785 0.092077 -0.803760
0.587785 0.092077 -0.803760
0.000000 0.113814 -0.993502
0.000000 0.993502 0.113813
0.000001 0.993502 0.113814
-0.000000 0.993502 0.113814
-0.000000 0.993502 0.113812
0.000000 0.993502 0.113813
-0.000000 0.993502 0.113814
-0.000001 0.993502 0.113814
-0.000000 0.993502 0.113812
-0.000000 0.993502 0.113814
-0.000000 0.993502 0.113815
-0.000001 0.993502 0.113814
-0.000000 0.993502 0.113814
0.000000 0.993502 0.113815
-0.000000 0.993502 0.113815
-0.000000 0.993502 0.113814
0.000000 0.993502 0.113813
0.000000 0.993502 0.113815
-0.000000 0.993502 0.113814
-0.000000 0.993502 0.113813
0.000000 0.993502 0.113813
-0.000000 0.993502 0.113814
-0.000001 0.993502 0.113815
-0.000000 0.993502 0.113813
-0.000000 0.993502 0.113814
-0.000000 0.993502 0.113814
-0.000001 0.993502 0.113815
-0.000000 0.993502 0.113814
0.000001 0.993502 0.113814
-0.000000 0.993502 0.113814
-0.000000 0.993502 0.113814
</float_array>
          <technique_common>
            <accessor source="#Engine-Normal0-array" count="1320" stride="3">
              <param name="X" type="float"/>
              <param name="Y" type="float"/>
              <param name="Z" type="float"/>
            </accessor>
          </technique_common>
        </source>
        <source id="Engine-UV0">
          <float_array id="Engine-UV0-array" count="1110">
0.302326 0.807051
0.326295 0.794838
0.349184 0.811467
0.341396 0.835437
0.302326 0.709551
0.326295 0.721764
0.366459 0.758301
0.383734 0.811467
0.391522 0.835437
0.341396 0.681165
0.349184 0.705134
0.411685 0.791160
0.432075 0.805974
0.391522 0.681165
0.383734 0.705134
0.422362 0.758301
0.447565 0.758301
0.432075 0.710628
0.411685 0.725442
0.501202 0.811467
0.493414 0.835437
0.454344 0.807051
0.478314 0.794838
0.535752 0.811467
0.543540 0.835437
0.454344 0.709551
0.478314 0.721764
0.518477 0.758301
0.563703 0.791160
0.584093 0.805974
0.493414 0.681165
0.501202 0.705134
0.574380 0.758301
0.599583 0.758301
0.543540 0.681165
0.535752 0.705134
0.563703 0.725442
0.584093 0.710628
0.312405 0.951729
0.308206 0.957508
0.301412 0.948157
0.314999 0.966858
0.323396 0.955300
0.301412 0.959716
0.312405 0.944585
0.301412 0.971272
0.323396 0.941014
0.294618 0.957508
0.308206 0.938806
0.287825 0.966858
0.314999 0.929457
0.290419 0.951729
0.301412 0.936599
0.279428 0.955300
0.301412 0.925042
0.290419 0.944585
0.294618 0.938806
0.279428 0.941014
0.287825 0.929457
0.458514 0.853193
0.462713 0.858972
0.451720 0.862544
0.465307 0.843843
0.473704 0.855401
0.462713 0.866116
0.451720 0.850985
0.451720 0.839429
0.473704 0.869687
0.458514 0.871895
0.444926 0.853193
0.438133 0.843843
0.465307 0.881244
0.451720 0.874102
0.440727 0.858972
0.429736 0.855401
0.451720 0.885659
0.444926 0.871895
0.440727 0.866116
0.429736 0.869687
0.438133 0.881244
0.766278 0.848274
0.753514 0.865842
0.732862 0.837416
0.761122 0.876313
0.778588 0.852274
0.732862 0.872552
0.766278 0.826559
0.732862 0.885495
0.778588 0.822559
0.712210 0.865842
0.753514 0.808991
0.704602 0.876313
0.761122 0.798520
0.699446 0.848274
0.732862 0.802281
0.687136 0.852274
0.732862 0.789337
0.699446 0.826559
0.712210 0.808991
0.687136 0.822559
0.704602 0.798520
0.655927 0.859082
0.668691 0.876650
0.635275 0.887508
0.663535 0.848611
0.681001 0.872650
0.668691 0.898365
0.635275 0.852372
0.635275 0.839429
0.681001 0.902365
0.655927 0.915933
0.614623 0.859082
0.607015 0.848611
0.663535 0.926404
0.635275 0.922643
0.601859 0.876650
0.589549 0.872650
0.635275 0.935587
0.614623 0.915933
0.601859 0.898365
0.589549 0.902365
0.607015 0.926404
0.412610 0.866115
0.408411 0.871895
0.401617 0.862544
0.415204 0.881244
0.423601 0.869687
0.401617 0.874102
0.412610 0.858972
0.401617 0.885659
0.423601 0.855401
0.394823 0.871895
0.408411 0.853193
0.388031 0.881244
0.415204 0.843843
0.390624 0.866115
0.401617 0.850985
0.379634 0.869687
0.401617 0.839429
0.390624 0.858972
0.394823 0.853193
0.379634 0.855401
0.388031 0.843843
0.358309 0.853192
0.362508 0.858972
0.351515 0.862544
0.365101 0.843843
0.373498 0.855401
0.362508 0.866115
0.351515 0.850985
0.351515 0.839429
0.373498 0.869687
0.358309 0.871895
0.344721 0.853192
0.337928 0.843843
0.365101 0.881244
0.351515 0.874102
0.340522 0.858972
0.329531 0.855401
0.351515 0.885659
0.344721 0.871895
0.340522 0.866115
0.329531 0.869687
0.337928 0.881244
0.012785 0.899606
0.001992 0.899606
0.001992 0.702610
0.012785 0.702610
0.012785 0.909346
0.003976 0.907555
0.012785 0.692870
0.003976 0.694660
0.134909 0.691958
0.134909 0.910258
0.134909 0.921051
0.134909 0.681165
0.145702 0.910258
0.145702 0.691958
0.143718 0.919067
0.143718 0.683148
0.285173 0.681165
0.285173 0.691958
0.163049 0.702610
0.163049 0.692870
0.295966 0.691958
0.293983 0.683148
0.285173 0.910258
0.163049 0.899606
0.152256 0.702610
0.154240 0.694660
0.295966 0.910258
0.285173 0.921051
0.163049 0.909346
0.152256 0.899606
0.293983 0.919067
0.154240 0.907555
0.635119 0.799226
0.619223 0.797405
0.632370 0.682638
0.648267 0.684459
0.629744 0.811001
0.621795 0.810090
0.606362 0.795932
0.619510 0.681165
0.647980 0.800700
0.661127 0.685932
0.636175 0.811738
0.615364 0.809354
0.710633 0.771013
0.694737 0.772834
0.681589 0.658067
0.697486 0.656246
0.708061 0.783698
0.700112 0.784609
0.681876 0.774308
0.668729 0.659540
0.723494 0.769540
0.710346 0.654773
0.714492 0.782962
0.693681 0.785346
0.759852 0.772834
0.743956 0.771013
0.757103 0.656246
0.773000 0.658067
0.754477 0.784609
0.746528 0.783698
0.731095 0.769540
0.744243 0.654773
0.772713 0.774308
0.785860 0.659540
0.760908 0.785346
0.740097 0.782962
0.835366 0.771013
0.819470 0.772834
0.806322 0.658067
0.822219 0.656246
0.832794 0.783698
0.824844 0.784609
0.806609 0.774308
0.793462 0.659540
0.848227 0.769540
0.835079 0.654773
0.839224 0.782962
0.818414 0.785346
0.884585 0.837708
0.868689 0.835887
0.881836 0.721120
0.897733 0.722941
0.879210 0.849483
0.871261 0.848572
0.855828 0.834414
0.868976 0.719646
0.897446 0.839181
0.910593 0.724414
0.885641 0.850220
0.864830 0.847835
0.960099 0.835887
0.944203 0.837708
0.931055 0.722941
0.946952 0.721120
0.957527 0.848572
0.949577 0.849483
0.931342 0.839181
0.918195 0.724414
0.972960 0.834414
0.959812 0.719647
0.963957 0.847836
0.943147 0.850220
0.944080 0.328835
0.890271 0.328835
0.890271 0.029905
0.944080 0.029905
0.937944 0.356801
0.890271 0.356801
0.836462 0.328835
0.836462 0.029905
0.937944 0.001939
0.890271 0.001939
0.977336 0.328835
0.977336 0.029905
0.967408 0.356801
0.842598 0.356801
0.803206 0.328835
0.803206 0.029905
0.842598 0.001939
0.967408 0.001939
0.813135 0.356801
0.813135 0.001939
0.762828 0.029905
0.762828 0.328835
0.655210 0.328835
0.655210 0.029905
0.796084 0.328835
0.796084 0.029905
0.757769 0.356801
0.660268 0.356801
0.621954 0.328835
0.621954 0.029905
0.757769 0.001939
0.660268 0.001939
0.786155 0.356801
0.786155 0.001939
0.631882 0.356801
0.631882 0.001939
0.027835 0.383193
0.013550 0.383193
0.013550 0.001939
0.027835 0.001939
0.001992 0.383193
0.001992 0.001939
0.039393 0.383193
0.039393 0.001939
0.107937 0.383193
0.093651 0.383193
0.093651 0.001939
0.107937 0.001939
0.082094 0.383193
0.082094 0.001939
0.119495 0.383193
0.119495 0.001939
0.215755 0.383193
0.186041 0.383193
0.186040 0.001939
0.215755 0.001939
0.162001 0.383193
0.162001 0.001939
0.239794 0.383193
0.239794 0.001939
0.365824 0.383193
0.336110 0.383193
0.336110 0.001939
0.365824 0.001939
0.312070 0.383193
0.312070 0.001939
0.389864 0.383193
0.389864 0.001939
0.487983 0.383193
0.473697 0.383193
0.473697 0.001939
0.487983 0.001939
0.462140 0.383193
0.462140 0.001939
0.499541 0.383193
0.499541 0.001939
0.567890 0.383193
0.553604 0.383193
0.553604 0.001939
0.567890 0.001939
0.542047 0.383193
0.542047 0.001939
0.579448 0.383193
0.579448 0.001939
0.862841 0.371586
0.872581 0.371586
0.872581 0.639988
0.862841 0.639988
0.862841 0.360793
0.870791 0.362776
0.862841 0.650781
0.870791 0.648798
0.665845 0.639988
0.665845 0.371586
0.665845 0.360793
0.665845 0.650781
0.656105 0.371586
0.656105 0.639988
0.657896 0.362776
0.657896 0.648798
0.110393 0.397977
0.121186 0.397977
0.121186 0.666380
0.110393 0.666380
0.121186 0.387184
0.112377 0.389168
0.339487 0.397977
0.339487 0.666380
0.121186 0.677173
0.112377 0.675190
0.339487 0.387184
0.350280 0.397977
0.350280 0.666380
0.339487 0.677173
0.348296 0.389168
0.348296 0.675190
0.543939 0.867723
0.539236 0.874154
0.531626 0.863749
0.531626 0.876611
0.543939 0.859774
0.546844 0.885959
0.531626 0.890871
0.524017 0.874154
0.539236 0.853343
0.516409 0.885959
0.519314 0.867723
0.531626 0.850887
0.519314 0.859774
0.546844 0.844341
0.531626 0.839429
0.524017 0.853343
0.516409 0.844341
0.507369 0.867723
0.502666 0.874154
0.495056 0.863749
0.495056 0.876611
0.507369 0.859774
0.510274 0.885959
0.495056 0.890871
0.487447 0.874154
0.502666 0.853343
0.479839 0.885959
0.482744 0.867723
0.495056 0.850887
0.482744 0.859774
0.510274 0.844341
0.495056 0.839429
0.487447 0.853343
0.479839 0.844341
0.580509 0.867723
0.575806 0.874154
0.568196 0.863749
0.568196 0.876611
0.580509 0.859774
0.583414 0.885959
0.568196 0.890871
0.560587 0.874154
0.575806 0.853343
0.552979 0.885959
0.555884 0.867723
0.568196 0.850887
0.555884 0.859774
0.583414 0.844341
0.568196 0.839429
0.560587 0.853343
0.552979 0.844341
0.998008 0.687689
0.941430 0.687689
0.941430 0.388759
0.998008 0.388759
0.994782 0.715655
0.944656 0.715655
0.994782 0.360793
0.944656 0.360793
0.935295 0.687689
0.878716 0.687689
0.878716 0.388759
0.935295 0.388759
0.932069 0.715655
0.881942 0.715655
0.932069 0.360793
0.881942 0.360793
0.074186 0.383193
0.060600 0.383193
0.060600 0.001939
0.074186 0.001939
0.047013 0.383193
0.047013 0.001939
0.154093 0.383193
0.140507 0.383193
0.140507 0.001939
0.154093 0.001939
0.126920 0.383193
0.126920 0.001939
0.304275 0.383193
0.276015 0.383193
0.276015 0.001939
0.304275 0.001939
0.247755 0.383193
0.247755 0.001939
0.454345 0.383193
0.426084 0.383193
0.426084 0.001939
0.454345 0.001939
0.397824 0.383193
0.397824 0.001939
0.534139 0.383193
0.520552 0.383193
0.520552 0.001939
0.534139 0.001939
0.506966 0.383193
0.506966 0.001939
0.614046 0.383193
0.600459 0.383193
0.600459 0.001939
0.614046 0.001939
0.586873 0.383193
0.586873 0.001939
0.506260 0.397977
0.517053 0.397977
0.517053 0.666380
0.506260 0.666380
0.517053 0.387184
0.508244 0.389168
0.639177 0.397977
0.639177 0.666380
0.517053 0.677173
0.508244 0.675190
0.639177 0.387184
0.649970 0.397977
0.649970 0.666380
0.639177 0.677173
0.647987 0.389168
0.647987 0.675190
0.489332 0.397977
0.500125 0.397977
0.500125 0.666380
0.489332 0.666380
0.489332 0.387184
0.498141 0.389168
0.489332 0.677173
0.498141 0.675190
0.367208 0.666380
0.367208 0.397977
0.367208 0.387184
0.367208 0.677173
0.356415 0.397977
0.356415 0.666380
0.358398 0.389168
0.358398 0.675190
0.998008 0.969541
0.982791 0.968979
0.982791 0.854211
0.998008 0.854774
0.967573 0.969541
0.967573 0.854774
0.931003 0.854774
0.946221 0.854211
0.946221 0.968979
0.931003 0.969541
0.961438 0.854774
0.961438 0.969541
0.924868 0.969541
0.909651 0.968979
0.909651 0.854211
0.924868 0.854774
0.894433 0.969541
0.894433 0.854774
0.857863 0.854774
0.873081 0.854211
0.873081 0.968978
0.857863 0.969541
0.888298 0.854774
0.888298 0.969541
0.851728 0.969541
0.836510 0.968978
0.836510 0.854211
0.851728 0.854774
0.821293 0.969541
0.821293 0.854774
0.784723 0.789900
0.799940 0.789337
0.799940 0.904105
0.784723 0.904667
0.815158 0.789900
0.815158 0.904667
</float_array>
          <technique_common>
            <accessor source="#Engine-UV0-array" count="555" stride="2">
              <param name="S" type="float"/>
              <param name="T" type="float"/>
            </accessor>
          </technique_common>
        </source>
        <vertices id="Engine-VERTEX">
          <input semantic="POSITION" source="#Engine-POSITION"/>
        </vertices>
        <polylist count="273" material="Metal_Basic"><input semantic="VERTEX" offset="0" source="#Engine-VERTEX"/><input semantic="NORMAL" offset="1" source="#Engine-Normal0"/><input semantic="TEXCOORD" offset="2" set="0" source="#Engine-UV0"/><vcount>4 4 4 4 4 4 4 4 4 4 4 4 3 3 3 3 4 4 4 4 4 4 4 4 4 4 4 4 4 4 4 4 4 4 4 4 4 4 4 4 4 4 4 4 4 4 4 4 4 4 4 4 4 4 4 4 4 4 4 4 4 4 4 4 4 4 4 4 4 4 4 4 4 4 4 4 4 4 4 4 4 4 4 4 4 4 4 4 4 4 4 4 4 4 4 4 4 4 4 4 4 4 4 4 4 4 4 4 4 4 4 4 4 4 4 4 4 4 4 4 4 4 4 4 4 4 4 4 4 3 3 3 3 3 3 3 3 3 3 3 3 3 3 3 3 3 3 3 3 4 4 4 4 4 4 4 4 4 4 4 4 4 4 4 4 4 4 4 4 4 4 4 4 4 4 4 4 4 4 4 4 4 4 4 4 4 4 4 4 4 4 4 4 4 4 4 4 4 4 4 4 4 4 4 4 4 4 4 4 4 4 4 4 4 4 4 4 4 4 4 4 4 4 4 4 4 4 4 4 4 4 4 4 4 4 4 4 4 4 4 4 4 4 4 4 4 4 4 4 4 4 4 4 4 4 4 4 4 4 4 4 4 4 4 4 4 4 4 4 4 4 4 4 </vcount><p> 16 0 290 15 1 295 18 2 302 17 3 296 15 4 0 14 5 1 19 6 2 18 7 3 37 8 19 36 9 20 39 10 21 38 11 22 36 12 301 35 13 293 40 14 288 39 15 298 2 16 274 5 17 282 32 18 283 29 19 275 5 20 435 8 21 436 35 22 437 32 23 438 8 24 292 11 25 289 40 26 288 35 27 293 16 28 290 17 29 296 44 30 297 41 31 291 17 32 443 20 33 444 47 34 445 44 35 446 20 36 278 23 37 268 50 38 271 47 39 279 23 40 268 26 41 269 53 42 270 50 43 271 26 44 269 2 45 274 29 46 275 53 47 270 19 57 2 14 58 1 0 59 6 22 60 7 19 61 2 0 62 6 43 81 26 46 82 31 1 83 27 46 84 31 49 85 35 1 86 27 40 96 288 11 97 289 16 98 290 41 99 291 2 106 274 3 107 281 6 108 286 5 109 282 3 110 17 4 111 18 7 112 14 6 113 13 5 114 435 6 115 439 9 116 440 8 117 436 6 118 13 7 119 14 10 120 10 9 121 9 8 122 292 9 123 300 12 124 294 11 125 289 9 126 9 10 127 10 13 128 5 12 129 4 11 130 289 12 131 294 15 132 295 16 133 290 12 134 4 13 135 5 14 136 1 15 137 0 17 138 443 18 139 447 21 140 448 20 141 444 18 142 3 19 143 2 22 144 7 21 145 8 20 146 278 21 147 280 24 148 272 23 149 268 21 150 8 22 151 7 25 152 11 24 153 12 23 154 268 24 155 272 27 156 273 26 157 269 24 158 12 25 159 11 28 160 15 27 161 16 4 162 18 3 163 17 27 164 16 28 165 15 3 166 281 2 167 274 26 168 269 27 169 273 29 170 275 30 171 284 54 172 277 53 173 270 30 174 29 31 175 28 55 176 32 54 177 33 31 178 28 30 179 29 33 180 24 34 181 23 30 182 284 29 183 275 32 184 283 33 185 287 34 186 23 33 187 24 36 188 20 37 189 19 33 190 441 32 191 438 35 192 437 36 193 442 38 194 22 39 195 21 42 196 25 43 197 26 39 198 298 40 199 288 41 200 291 42 201 299 43 202 26 42 203 25 45 204 30 46 205 31 42 206 299 41 207 291 44 208 297 45 209 303 46 210 31 45 211 30 48 212 34 49 213 35 45 214 449 44 215 446 47 216 445 48 217 450 49 218 35 48 219 34 51 220 37 52 221 36 48 222 285 47 223 279 50 224 271 51 225 276 52 226 36 51 227 37 54 228 33 55 229 32 51 230 276 50 231 271 53 232 270 54 233 277 62 234 41 63 235 39 65 236 38 64 237 42 63 238 39 62 239 41 80 240 45 81 241 43 64 242 42 65 243 38 67 244 44 66 245 46 66 246 46 67 247 44 69 248 48 68 249 50 68 250 50 69 251 48 71 252 52 70 253 54 70 254 54 71 255 52 73 256 56 72 257 58 72 258 58 73 259 56 75 260 55 74 261 57 74 262 57 75 263 55 77 264 51 76 265 53 76 266 53 77 267 51 79 268 47 78 269 49 78 270 49 79 271 47 81 272 43 80 273 45 82 274 62 83 275 59 101 276 65 100 277 66 83 278 59 82 279 62 84 280 63 85 281 60 85 282 60 84 283 63 86 284 67 87 285 64 87 286 64 86 287 67 88 288 71 89 289 68 89 290 68 88 291 71 90 292 75 91 293 72 91 294 72 90 295 75 92 296 79 93 297 76 93 298 76 92 299 79 94 300 78 95 301 77 95 302 77 94 303 78 96 304 74 97 305 73 97 306 73 96 307 74 98 308 70 99 309 69 99 310 69 98 311 70 100 312 66 101 313 65 102 314 83 103 315 81 105 316 80 104 317 84 103 318 81 102 319 83 120 320 87 121 321 85 104 322 84 105 323 80 107 324 86 106 325 88 106 326 88 107 327 86 109 328 90 108 329 92 108 330 92 109 331 90 111 332 94 110 333 96 110 334 96 111 335 94 113 336 98 112 337 100 112 338 100 113 339 98 115 340 97 114 341 99 114 342 99 115 343 97 117 344 93 116 345 95 116 346 95 117 347 93 119 348 89 118 349 91 118 350 91 119 351 89 121 352 85 120 353 87 122 354 104 123 355 101 141 356 107 140 357 108 123 358 101 122 359 104 124 360 105 125 361 102 125 362 102 124 363 105 126 364 109 127 365 106 127 366 106 126 367 109 128 368 113 129 369 110 129 370 110 128 371 113 130 372 117 131 373 114 131 374 114 130 375 117 132 376 121 133 377 118 133 378 118 132 379 121 134 380 120 135 381 119 135 382 119 134 383 120 136 384 116 137 385 115 137 386 115 136 387 116 138 388 112 139 389 111 139 390 111 138 391 112 140 392 108 141 393 107 142 394 125 143 395 123 145 396 122 144 397 126 143 398 123 142 399 125 160 400 129 161 401 127 144 402 126 145 403 122 147 404 128 146 405 130 146 406 130 147 407 128 149 408 132 148 409 134 148 410 134 149 411 132 151 412 136 150 413 138 150 414 138 151 415 136 153 416 140 152 417 142 152 418 142 153 419 140 155 420 139 154 421 141 154 422 141 155 423 139 157 424 135 156 425 137 156 426 137 157 427 135 159 428 131 158 429 133 158 430 133 159 431 131 161 432 127 160 433 129 162 434 146 163 435 143 181 436 149 180 437 150 163 438 143 162 439 146 164 440 147 165 441 144 165 442 144 164 443 147 166 444 151 167 445 148 167 446 148 166 447 151 168 448 155 169 449 152 169 450 152 168 451 155 170 452 159 171 453 156 171 454 156 170 455 159 172 456 163 173 457 160 173 458 160 172 459 163 174 460 162 175 461 161 175 462 161 174 463 162 176 464 158 177 465 157 177 466 157 176 467 158 178 468 154 179 469 153 179 470 153 178 471 154 180 472 150 181 473 149 62 474 310 64 475 304 84 476 307 82 477 311 64 478 304 66 479 305 86 480 306 84 481 307 66 482 305 68 483 308 88 484 309 86 485 306 68 486 451 70 487 452 90 488 453 88 489 454 70 490 452 72 491 455 92 492 456 90 493 453 72 494 318 74 495 312 94 496 315 92 497 319 74 498 312 76 499 313 96 500 314 94 501 315 76 502 313 78 503 316 98 504 317 96 505 314 78 506 457 80 507 458 100 508 459 98 509 460 80 510 458 62 511 461 82 512 462 100 513 459 102 574 326 104 575 320 124 576 323 122 577 327 104 578 320 106 579 321 126 580 322 124 581 323 106 582 321 108 583 324 128 584 325 126 585 322 108 586 463 110 587 464 130 588 465 128 589 466 110 590 464 112 591 467 132 592 468 130 593 465 112 594 334 114 595 328 134 596 331 132 597 335 114 598 328 116 599 329 136 600 330 134 601 331 116 602 329 118 603 332 138 604 333 136 605 330 118 606 469 120 607 470 140 608 471 138 609 472 120 610 470 102 611 473 122 612 474 140 613 471 105 614 80 103 615 81 58 616 82 107 617 86 105 618 80 58 619 82 109 620 90 107 621 86 58 622 82 111 623 94 109 624 90 58 625 82 113 626 98 111 627 94 58 628 82 115 629 97 113 630 98 58 631 82 117 632 93 115 633 97 58 634 82 119 635 89 117 636 93 58 637 82 121 638 85 119 639 89 58 640 82 103 641 81 121 642 85 58 643 82 123 644 101 125 645 102 59 646 103 125 647 102 127 648 106 59 649 103 127 650 106 129 651 110 59 652 103 129 653 110 131 654 114 59 655 103 131 656 114 133 657 118 59 658 103 133 659 118 135 660 119 59 661 103 135 662 119 137 663 115 59 664 103 137 665 115 139 666 111 59 667 103 139 668 111 141 669 107 59 670 103 141 671 107 123 672 101 59 673 103 142 674 342 144 675 336 164 676 339 162 677 343 144 678 336 146 679 337 166 680 338 164 681 339 146 682 337 148 683 340 168 684 341 166 685 338 148 686 475 150 687 476 170 688 477 168 689 478 150 690 476 152 691 479 172 692 480 170 693 477 152 694 350 154 695 344 174 696 347 172 697 351 154 698 344 156 699 345 176 700 346 174 701 347 156 702 345 158 703 348 178 704 349 176 705 346 158 706 481 160 707 482 180 708 483 178 709 484 160 710 482 142 711 485 162 712 486 180 713 483 183 774 352 182 775 353 218 776 354 223 777 355 182 778 487 187 779 488 219 780 489 218 781 490 185 782 164 184 783 165 192 784 166 191 785 167 184 786 356 183 787 352 193 788 361 192 789 362 187 790 488 186 791 491 196 792 497 195 793 493 186 794 168 185 795 164 197 796 173 196 797 174 189 798 503 188 799 504 224 800 505 229 801 506 188 802 364 193 803 361 225 804 360 224 805 365 191 806 167 190 807 170 204 808 175 203 809 172 190 810 507 189 811 503 205 812 512 204 813 513 195 814 493 194 815 498 208 816 499 207 817 494 194 818 368 199 819 369 209 820 370 208 821 371 199 822 369 198 823 372 202 824 378 201 825 374 198 826 176 197 827 173 203 828 172 202 829 177 201 830 374 200 831 379 216 832 380 215 833 375 200 834 515 205 835 512 217 836 511 216 837 516 207 838 494 206 839 500 220 840 495 219 841 489 206 842 180 211 843 181 221 844 182 220 845 183 211 846 181 210 847 184 214 848 190 213 849 186 210 850 376 209 851 370 215 852 375 214 853 381 213 854 186 212 855 191 228 856 192 227 857 187 212 858 514 217 859 511 229 860 506 228 861 509 223 862 355 222 863 358 226 864 363 225 865 360 222 866 188 221 867 182 227 868 187 226 869 193 185 870 164 191 871 167 203 872 172 197 873 173 199 874 369 201 875 374 215 876 375 209 877 370 211 878 181 213 879 186 227 880 187 221 881 182 223 882 355 225 883 360 193 884 361 183 885 352 189 886 503 229 887 506 217 888 511 205 889 512 219 890 489 187 891 488 195 892 493 207 893 494 186 894 491 187 895 488 182 896 487 230 897 492 182 898 353 183 899 352 184 900 356 230 901 357 184 902 165 185 903 164 186 904 168 230 905 169 192 906 362 193 907 361 188 908 364 231 909 366 188 910 504 189 911 503 190 912 507 231 913 508 190 914 170 191 915 167 192 916 166 231 917 171 198 918 372 199 919 369 194 920 368 232 921 373 194 922 498 195 923 493 196 924 497 232 925 501 196 926 174 197 927 173 198 928 176 232 929 178 204 930 513 205 931 512 200 932 515 233 933 517 200 934 379 201 935 374 202 936 378 233 937 382 202 938 177 203 939 172 204 940 175 233 941 179 210 942 184 211 943 181 206 944 180 234 945 185 206 946 500 207 947 494 208 948 499 234 949 502 208 950 371 209 951 370 210 952 376 234 953 377 216 954 516 217 955 511 212 956 514 235 957 518 212 958 191 213 959 186 214 960 190 235 961 194 214 962 381 215 963 375 216 964 380 235 965 383 222 966 358 223 967 355 218 968 354 236 969 359 218 970 490 219 971 489 220 972 495 236 973 496 220 974 183 221 975 182 222 976 188 236 977 189 228 978 509 229 979 506 224 980 505 237 981 510 224 982 365 225 983 360 226 984 363 237 985 367 226 986 193 227 987 187 228 988 192 237 989 195 239 990 204 240 991 206 242 992 200 241 993 196 240 994 385 239 995 389 257 996 390 258 997 387 241 998 196 242 999 200 244 1000 201 243 1001 197 243 1002 197 244 1003 201 246 1004 207 245 1005 202 245 1006 397 246 1007 392 248 1008 395 247 1009 398 247 1010 398 248 1011 395 250 1012 399 249 1013 400 249 1014 216 250 1015 218 252 1016 212 251 1017 208 251 1018 208 252 1019 212 254 1020 213 253 1021 209 253 1022 209 254 1023 213 256 1024 219 255 1025 214 255 1026 393 256 1027 391 258 1028 387 257 1029 390 239 1030 204 241 1031 196 260 1032 199 259 1033 205 241 1034 196 243 1035 197 261 1036 198 260 1037 199 243 1038 197 245 1039 202 262 1040 203 261 1041 198 245 1042 519 247 1043 520 263 1044 521 262 1045 522 247 1046 520 249 1047 523 264 1048 524 263 1049 521 249 1050 216 251 1051 208 265 1052 211 264 1053 217 251 1054 208 253 1055 209 266 1056 210 265 1057 211 253 1058 209 255 1059 214 267 1060 215 266 1061 210 255 1062 525 257 1063 526 268 1064 527 267 1065 528 257 1066 526 239 1067 529 259 1068 530 268 1069 527 270 1100 228 271 1101 230 273 1102 224 272 1103 220 271 1104 402 270 1105 406 288 1106 407 289 1107 404 272 1108 220 273 1109 224 275 1110 225 274 1111 221 274 1112 221 275 1113 225 277 1114 231 276 1115 226 276 1116 414 277 1117 409 279 1118 412 278 1119 415 278 1120 415 279 1121 412 281 1122 416 280 1123 417 280 1124 240 281 1125 242 283 1126 236 282 1127 232 282 1128 232 283 1129 236 285 1130 237 284 1131 233 284 1132 233 285 1133 237 287 1134 243 286 1135 238 286 1136 410 287 1137 408 289 1138 404 288 1139 407 270 1140 228 272 1141 220 291 1142 223 290 1143 229 272 1144 220 274 1145 221 292 1146 222 291 1147 223 274 1148 221 276 1149 226 293 1150 227 292 1151 222 276 1152 531 278 1153 532 294 1154 533 293 1155 534 278 1156 532 280 1157 535 295 1158 536 294 1159 533 280 1160 240 282 1161 232 296 1162 235 295 1163 241 282 1164 232 284 1165 233 297 1166 234 296 1167 235 284 1168 233 286 1169 238 298 1170 239 297 1171 234 286 1172 537 288 1173 538 299 1174 539 298 1175 540 288 1176 538 270 1177 541 290 1178 542 299 1179 539 301 1210 252 302 1211 254 304 1212 248 303 1213 244 302 1214 419 301 1215 423 319 1216 424 320 1217 421 303 1218 244 304 1219 248 306 1220 249 305 1221 245 305 1222 245 306 1223 249 308 1224 255 307 1225 250 307 1226 431 308 1227 426 310 1228 429 309 1229 432 309 1230 432 310 1231 429 312 1232 433 311 1233 434 311 1234 264 312 1235 266 314 1236 260 313 1237 256 313 1238 256 314 1239 260 316 1240 261 315 1241 257 315 1242 257 316 1243 261 318 1244 267 317 1245 262 317 1246 427 318 1247 425 320 1248 421 319 1249 424 301 1250 252 303 1251 244 322 1252 247 321 1253 253 303 1254 244 305 1255 245 323 1256 246 322 1257 247 305 1258 245 307 1259 250 324 1260 251 323 1261 246 307 1262 543 309 1263 544 325 1264 545 324 1265 546 309 1266 544 311 1267 547 326 1268 548 325 1269 545 311 1270 264 313 1271 256 327 1272 259 326 1273 265 313 1274 256 315 1275 257 328 1276 258 327 1277 259 315 1278 257 317 1279 262 329 1280 263 328 1281 258 317 1282 549 319 1283 550 330 1284 551 329 1285 552 319 1286 550 301 1287 553 321 1288 554 330 1289 551</p></polylist>
        <polylist count="14" material="Metal_Red"><input semantic="VERTEX" offset="0" source="#Engine-VERTEX"/><input semantic="NORMAL" offset="1" source="#Engine-Normal0"/><input semantic="TEXCOORD" offset="2" set="0" source="#Engine-UV0"/><vcount>3 3 3 3 3 3 3 3 3 3 3 3 3 3 </vcount><p> 7 48 14 4 49 18 0 50 6 10 51 10 7 52 14 0 53 6 13 54 5 10 55 10 0 56 6 25 63 11 22 64 7 0 65 6 28 66 15 25 67 11 0 68 6 4 69 18 28 70 15 0 71 6 31 72 28 34 73 23 1 74 27 34 75 23 37 76 19 1 77 27 37 78 19 38 79 22 1 80 27 49 87 35 52 88 36 1 89 27 52 90 36 55 91 32 1 92 27 55 93 32 31 94 28 1 95 27 0 100 6 14 101 1 13 102 5 38 103 22 43 104 26 1 105 27</p></polylist>
        <polylist count="70" material="Metal_Dark"><input semantic="VERTEX" offset="0" source="#Engine-VERTEX"/><input semantic="NORMAL" offset="1" source="#Engine-Normal0"/><input semantic="TEXCOORD" offset="2" set="0" source="#Engine-UV0"/><vcount>3 3 3 3 3 3 3 3 3 3 3 3 3 3 3 3 3 3 3 3 3 3 3 3 3 3 3 3 3 3 3 3 3 3 3 3 3 3 3 3 3 3 3 3 3 3 3 3 3 3 3 3 3 3 3 3 3 3 3 3 3 3 3 3 3 3 3 3 3 3 </vcount><p> 65 514 38 63 515 39 56 516 40 67 517 44 65 518 38 56 519 40 69 520 48 67 521 44 56 522 40 71 523 52 69 524 48 56 525 40 73 526 56 71 527 52 56 528 40 75 529 55 73 530 56 56 531 40 77 532 51 75 533 55 56 534 40 79 535 47 77 536 51 56 537 40 81 538 43 79 539 47 56 540 40 63 541 39 81 542 43 56 543 40 83 544 59 85 545 60 57 546 61 85 547 60 87 548 64 57 549 61 87 550 64 89 551 68 57 552 61 89 553 68 91 554 72 57 555 61 91 556 72 93 557 76 57 558 61 93 559 76 95 560 77 57 561 61 95 562 77 97 563 73 57 564 61 97 565 73 99 566 69 57 567 61 99 568 69 101 569 65 57 570 61 101 571 65 83 572 59 57 573 61 145 714 122 143 715 123 60 716 124 147 717 128 145 718 122 60 719 124 149 720 132 147 721 128 60 722 124 151 723 136 149 724 132 60 725 124 153 726 140 151 727 136 60 728 124 155 729 139 153 730 140 60 731 124 157 732 135 155 733 139 60 734 124 159 735 131 157 736 135 60 737 124 161 738 127 159 739 131 60 740 124 143 741 123 161 742 127 60 743 124 163 744 143 165 745 144 61 746 145 165 747 144 167 748 148 61 749 145 167 750 148 169 751 152 61 752 145 169 753 152 171 754 156 61 755 145 171 756 156 173 757 160 61 758 145 173 759 160 175 760 161 61 761 145 175 762 161 177 763 157 61 764 145 177 765 157 179 766 153 61 767 145 179 768 153 181 769 149 61 770 145 181 771 149 163 772 143 61 773 145 242 1070 384 240 1071 385 238 1072 386 244 1073 388 242 1074 384 238 1075 386 246 1076 392 244 1077 388 238 1078 386 248 1079 395 246 1080 392 238 1081 386 250 1082 399 248 1083 395 238 1084 386 252 1085 396 250 1086 399 238 1087 386 254 1088 394 252 1089 396 238 1090 386 256 1091 391 254 1092 394 238 1093 386 258 1094 387 256 1095 391 238 1096 386 240 1097 385 258 1098 387 238 1099 386 273 1180 401 271 1181 402 269 1182 403 275 1183 405 273 1184 401 269 1185 403 277 1186 409 275 1187 405 269 1188 403 279 1189 412 277 1190 409 269 1191 403 281 1192 416 279 1193 412 269 1194 403 283 1195 413 281 1196 416 269 1197 403 285 1198 411 283 1199 413 269 1200 403 287 1201 408 285 1202 411 269 1203 403 289 1204 404 287 1205 408 269 1206 403 271 1207 402 289 1208 404 269 1209 403 304 1290 418 302 1291 419 300 1292 420 306 1293 422 304 1294 418 300 1295 420 308 1296 426 306 1297 422 300 1298 420 310 1299 429 308 1300 426 300 1301 420 312 1302 433 310 1303 429 300 1304 420 314 1305 430 312 1306 433 300 1307 420 316 1308 428 314 1309 430 300 1310 420 318 1311 425 316 1312 428 300 1313 420 320 1314 421 318 1315 425 300 1316 420 302 1317 419 320 1318 421 300 1319 420</p></polylist>
      </mesh>
    </geometry>
  </library_geometries>
  <library_visual_scenes>
    <visual_scene id="Engine" name="Engine">
      <node name="Engine" id="Engine" sid="Engine"><matrix sid="matrix">0.010000 0.000000 0.000000 0.000000 0.000000 0.010000 0.000000 0.000000 0.000000 0.000000 0.010000 0.000000 0.000000 0.000000 0.000000 1.000000</matrix><instance_geometry url="#Engine-lib"><bind_material><technique_common><instance_material symbol="Metal_Basic" target="#Metal_Basic"/><instance_material symbol="Metal_Red" target="#Metal_Red"/><instance_material symbol="Metal_Dark" target="#Metal_Dark"/></technique_common></bind_material></instance_geometry><extra><technique profile="FCOLLADA"><visibility>1.000000</visibility></technique></extra></node>
      <extra><technique profile="MAX3D"><frame_rate>24.000000</frame_rate></technique><technique profile="FCOLLADA"><start_time>0.041667</start_time><end_time>8.333333</end_time></technique></extra>
    </visual_scene>
  </library_visual_scenes>
  <scene>
    <instance_visual_scene url="#Engine"></instance_visual_scene>
  </scene>
</COLLADA>
