[gd_scene load_steps=3 format=2]

[ext_resource path="res://assets/Icons/Icon_Car.png" type="Texture" id=1]
[ext_resource path="res://ui/CarStatus.gd" type="Script" id=2]

[node name="CarStatus" type="VBoxContainer"]
margin_right = 64.0
margin_bottom = 446.0
script = ExtResource( 2 )
__meta__ = {
"_edit_use_anchors_": false
}

[node name="TextureRect" type="TextureRect" parent="."]
margin_right = 64.0
margin_bottom = 32.0
texture = ExtResource( 1 )

[node name="ProgressBar" type="ProgressBar" parent="."]
margin_top = 36.0
margin_right = 64.0
margin_bottom = 50.0
